<?xml version="1.0" encoding="utf-8"?>
<!-- Generator: Adobe Illustrator 22.1.0, SVG Export Plug-In . SVG Version: 6.00 Build 0)  -->
<svg version="1.1" id="ESCUDO_x5F_BURGOSCF_x5F_NB" xmlns="http://www.w3.org/2000/svg" xmlns:xlink="http://www.w3.org/1999/xlink"
	 x="0px" y="0px" viewBox="0 0 255.1 340.1" style="enable-background:new 0 0 255.1 340.1;" xml:space="preserve">
<style type="text/css">
	.st0{fill:#FFFFFF;}
</style>
<g id="ESCUDO_PARA_UTILIZAR_EN_BLANCO">
	<path class="st0" d="M0.2,0.2c85.1,0,170.2,0,255.4,0c0,113.4,0,226.7,0,340.1c-85.1,0-170.2,0-255.4,0C0.2,227,0.2,113.6,0.2,0.2z
		 M37.1,156.5c0,0.3,0.1,0.3,0,0.4c-0.1,0.3-0.2,0.5-0.3,0.8c-8,18.6-10.4,37.9-6.6,57.8c5,26.6,18.8,47.7,40.8,63.3
		c15.4,10.9,32.6,16.6,51.4,17.7c0.7,0,1.1,0.3,1.4,1c1.1,2.5,2.2,5.1,3.3,7.6c0.2,0.5,0.5,1,0.8,1.7c1.4-3.2,2.7-6.2,4-9.2
		c0.3-0.7,0.7-1,1.5-1c5.9-0.3,11.7-1.2,17.4-2.5c41.9-9.9,73-46.5,75.9-89.4c1.1-16.2-1.5-31.9-8-46.8c-0.2-0.4-0.3-0.7-0.5-1.3
		c3.9,0,7.6,0,11.4,0c0-9.5,0-18.8,0-28.1c-5.7,0-11.3,0-17,0c0,2.2,0,4.3,0,6.5c-2.3,0-4.5,0-6.7,0c-0.8,0-1.3-0.3-1.8-0.9
		c-3.5-3.7-7-7.3-10.6-10.9c-0.2-0.2-0.3-0.4-0.5-0.6c1.5-1.1,2.3-2.6,2.4-4.3c0.1-1.9-0.8-3.5-2-4.9c-0.6-0.7-0.7-1.4-0.1-2.2
		c1.6,0.3,3.2,0.6,4.8,0.9c0.9,0.2,1.8,0.1,2.3-0.8c0.6-1,0.2-1.8-0.4-2.5c-1-1.3-2.1-2.5-3.1-3.9c0.5-0.4,0.9-0.8,1.3-1.2
		c5,1.9,7.6,1.6,9.5-1.4c0.6-1,0.9-2.3,0.9-3.5c0-2.3-1.7-3.7-3.4-4.9c1.4-0.7,2.8-1.3,4-2.1c1.2-0.8,2.3-1.8,3.3-2.9
		c0.8-0.9,1.4-1.1,2.6-0.5c4.5,2.2,9.3-0.5,9.4-5.1c0.1-2.6,0-5.2,0-7.8c0-2.5-1.3-4.4-3.6-5.4c-2.3-1-4.6-1-7,0
		c-0.5,0.2-1.2,0.3-1.7,0.1c-4.9-1.6-9.4,1.1-10,6.2c-0.2,1.8,0.2,3.7,0.3,5.7c-2.8,1.6-6.7-0.9-7.2-5.1c3-0.2,5.6-1.2,7.4-3.7
		c1.8-2.5,2.2-5.4,1.5-8.4c-1.1-4.9-6.2-8-11.3-6.8c-6.1,1.4-8.4,5.9-6.8,13.7c-0.9,0.5-1.9,1.1-2.9,1.5c-3.6,1.7-6.6,0.1-7.1-3.7
		c1.1-0.5,2.1-1.1,3.1-1.6c0.7-0.3,1.4-0.8,2.1-1c2.1-0.5,3.7-1.5,4.4-3.6c0.6-1.7,1.2-3.3,1.7-5c0.5-1.8,0.3-3.5-1-4.8
		c-0.8-0.8-1.1-1.7-1.3-2.7c-0.3-1.7-1.2-3.1-2.8-3.8c-1.9-0.8-3.9-1.5-5.9-2c-1.7-0.5-3.3-0.1-4.6,1.1c-0.8,0.7-1.6,1.1-2.6,1.2
		c-2,0.4-3.4,1.5-4.1,3.4c-0.6,1.6-1.2,3.2-1.7,4.9c-0.7,2.1-0.2,3.9,1.3,5.5c0.3,0.3,0.6,0.8,0.7,1.2c0.4,1.2,0.7,2.4,1.1,3.8
		c-1.8,1.5-3.9,3.1-6.6,2.1c-2.9-1-3.7-3.6-4.5-6.2c6-3.8,7.6-9.7,4.2-14.7c-3-4.4-9.6-5.2-14-2c-4,3-5.2,10.5-0.3,15.1
		c-1.4,1.8-3.1,3.2-5.4,3.7c-1,0.2-2.1,0.1-3-0.3c-1.8-0.9-3-2.5-4-4.4c1.8-0.8,2.9-2,3.4-3.8c0.1-0.3,0.6-0.6,1-0.8
		c2.1-0.8,3.4-2.2,3.6-4.4c0.2-2.5,0.3-5,0.1-7.5c-0.2-2-1.3-3.6-3.3-4.4c-0.8-0.3-1.3-0.8-1.6-1.6c-0.7-1.8-2-3-3.9-3.2
		c-2.4-0.2-4.8-0.3-7.2-0.2c-2.6,0.1-4.4,1.3-5.3,3.9c-0.1,0.4-0.6,0.7-1,0.9c-2,0.7-3.3,2.2-3.5,4.3c-0.2,2.5-0.2,4.9-0.1,7.4
		c0.1,2.3,1.5,3.9,3.7,4.7c0.4,0.1,0.8,0.5,0.9,0.8c0.6,1.6,1.6,2.9,3.3,3.6c-1.6,2.3-2.9,4.9-6,5c-3,0.1-4.9-1.9-6.7-4
		c0.1-0.2,0.2-0.3,0.3-0.4c3-2.8,3.6-7.7,1.9-11.3c-1.6-3.5-5-5.4-9.3-5.2c-4.2,0.1-7.5,2.8-8.5,6.8c-1.1,4.3,0.5,8.7,4,10.8
		c1.9,1.2,1.9,1.2,1,3.2c-0.1,0.3-0.2,0.5-0.4,0.8c-1.9,3.7-6,5.1-9.8,1.2c0.5-1.2,0.9-2.3,1.4-3.3c0.3-0.7,0.6-1.6,1.1-2.2
		c1.2-1.6,1.7-3.2,1.1-5.2c-0.5-1.6-1-3.1-1.6-4.7c-0.7-2.2-2.3-3.3-4.5-3.8c-0.7-0.2-1.5-0.5-2.1-1c-1.6-1.2-3.2-1.7-5.1-1.1
		c-1.5,0.5-3,1-4.4,1.5c-2.3,0.7-3.6,2.3-4.1,4.7c-0.2,0.7-0.5,1.5-1,2.1c-1.3,1.6-1.7,3.3-1,5.3c0.5,1.4,1,2.8,1.4,4.2
		c0.7,2.4,2.3,3.8,4.7,4.2c0.5,0.1,1.1,0.3,1.5,0.6c0.8,0.5,1.6,1,2.4,1.5c0.2,0.1,0.5,0.4,0.5,0.6c0,2.4-2.4,4.7-4.8,4.3
		c-1.7-0.3-3.4-1-5.1-1.6c2.9-7.6-1-12.8-5.4-14c-5.3-1.5-10.7,1.1-12.2,6c-1.8,6.1,1.1,10.7,8.2,12.8c-0.2,2-1,3.6-2.8,4.5
		c-1.5,0.8-3.1,1.2-4.7,0c0.1-0.2,0.1-0.4,0.2-0.6c1.1-3.3,0.9-6.3-1.4-9c-2.2-2.5-4.9-2.8-8-2c-0.6,0.2-1.4,0-2.1-0.1
		c-1-0.2-2-0.6-3-0.7c-4-0.2-7,2.3-7.2,6.1c-0.1,2.6-0.1,5.2,0,7.8c0.2,4,3.7,6.5,7.6,5.5c0.8-0.2,1.7-0.5,2.5-0.8
		c0.7-0.3,1.2-0.2,1.7,0.4c1.8,2.2,4,3.9,6.7,4.9c0.3,0.1,0.5,0.3,0.9,0.5c-0.5,0.4-0.8,0.7-1.2,1c-1.1,1-1.9,2.2-1.9,3.7
		c-0.1,4.6,4.8,7.6,9,5.5c0.7-0.3,1.3-0.7,2-1.1c0.4,0.7,0.7,1.2,1,1.8c-1.1,1.4-2.2,2.7-3.2,4.1c-0.6,0.7-1,1.4-0.4,2.3
		c0.6,0.8,1.3,1.2,2.4,0.9c1.7-0.4,3.5-0.7,5.2-1.1c0.7,0.9,0.5,1.6-0.2,2.3c-1.6,1.8-2.2,3.9-1.2,6.2c0.4,0.9,1.1,1.7,1.4,2.3
		c-4,4.3-8,8.5-12,12.7c-0.2,0.2-0.5,0.5-0.8,0.5c-2.5,0-5,0-7.7,0c0-2.3,0-4.4,0-6.6c-5.7,0-11.3,0-17,0c0,9.4,0,18.7,0,28.1
		C29.6,156.5,33.3,156.5,37.1,156.5z"/>
	<path d="M37.1,156.5c-3.8,0-7.5,0-11.4,0c0-9.4,0-18.8,0-28.1c5.6,0,11.2,0,17,0c0,2.1,0,4.3,0,6.6c2.7,0,5.2,0,7.7,0
		c0.3,0,0.5-0.3,0.8-0.5c4-4.2,7.9-8.4,12-12.7c-0.4-0.6-1-1.4-1.4-2.3c-1-2.3-0.4-4.4,1.2-6.2c0.7-0.8,0.8-1.4,0.2-2.3
		c-1.7,0.3-3.4,0.6-5.2,1.1c-1.1,0.3-1.8-0.1-2.4-0.9c-0.6-0.8-0.1-1.6,0.4-2.3c1.1-1.3,2.1-2.7,3.2-4.1c-0.3-0.6-0.6-1.1-1-1.8
		c-0.7,0.4-1.3,0.8-2,1.1c-4.2,2.2-9.1-0.8-9-5.5c0-1.5,0.8-2.7,1.9-3.7c0.3-0.3,0.7-0.6,1.2-1c-0.4-0.2-0.6-0.4-0.9-0.5
		c-2.6-1.1-4.9-2.7-6.7-4.9c-0.5-0.6-0.9-0.7-1.7-0.4c-0.8,0.3-1.7,0.6-2.5,0.8c-3.8,1-7.4-1.5-7.6-5.5c-0.1-2.6-0.1-5.2,0-7.8
		c0.2-3.8,3.1-6.3,7.2-6.1c1,0,2,0.5,3,0.7c0.7,0.1,1.5,0.3,2.1,0.1c3.1-0.9,5.8-0.5,8,2c2.3,2.7,2.6,5.7,1.4,9
		c-0.1,0.2-0.1,0.4-0.2,0.6c1.6,1.1,3.2,0.8,4.7,0c1.8-1,2.6-2.6,2.8-4.5c-7.1-2.1-10-6.7-8.2-12.8c1.5-5,6.8-7.5,12.2-6
		c4.4,1.3,8.3,6.4,5.4,14c1.7,0.5,3.3,1.3,5.1,1.6c2.4,0.4,4.8-1.9,4.8-4.3c0-0.2-0.3-0.5-0.5-0.6c-0.8-0.5-1.6-1.1-2.4-1.5
		c-0.5-0.3-1-0.5-1.5-0.6c-2.4-0.5-4-1.8-4.7-4.2c-0.4-1.4-0.9-2.8-1.4-4.2c-0.6-2-0.2-3.7,1-5.3c0.5-0.6,0.9-1.3,1-2.1
		c0.5-2.4,1.8-3.9,4.1-4.7c1.5-0.5,3-1,4.4-1.5c1.9-0.6,3.6-0.1,5.1,1.1c0.6,0.5,1.4,0.8,2.1,1c2.2,0.5,3.8,1.7,4.5,3.8
		c0.5,1.6,1,3.1,1.6,4.7c0.6,1.9,0.1,3.6-1.1,5.2c-0.5,0.6-0.7,1.5-1.1,2.2c-0.5,1.1-0.9,2.2-1.4,3.3c3.8,3.9,7.9,2.5,9.8-1.2
		c0.1-0.2,0.2-0.5,0.4-0.8c0.9-2.1,0.9-2.1-1-3.2c-3.5-2.2-5.1-6.5-4-10.8c1-4,4.4-6.7,8.5-6.8c4.4-0.2,7.7,1.7,9.3,5.2
		c1.7,3.6,1.1,8.5-1.9,11.3c-0.1,0.1-0.1,0.2-0.3,0.4c1.8,2.1,3.7,4.1,6.7,4c3.1-0.1,4.4-2.7,6-5c-1.7-0.7-2.6-2-3.3-3.6
		c-0.1-0.3-0.6-0.7-0.9-0.8c-2.2-0.8-3.6-2.4-3.7-4.7c-0.1-2.5-0.1-4.9,0.1-7.4c0.2-2.1,1.5-3.5,3.5-4.3c0.4-0.1,0.9-0.5,1-0.9
		c0.8-2.6,2.7-3.8,5.3-3.9c2.4-0.1,4.8,0,7.2,0.2c1.9,0.2,3.2,1.4,3.9,3.2c0.3,0.8,0.8,1.3,1.6,1.6c2,0.7,3.2,2.3,3.3,4.4
		c0.2,2.5,0.1,5-0.1,7.5c-0.2,2.2-1.5,3.6-3.6,4.4c-0.4,0.1-0.9,0.4-1,0.8c-0.5,1.8-1.6,3-3.4,3.8c1,1.8,2.2,3.5,4,4.4
		c0.9,0.4,2,0.5,3,0.3c2.3-0.5,4-1.9,5.4-3.7c-4.9-4.6-3.7-12.1,0.3-15.1c4.4-3.3,11-2.4,14,2c3.4,4.9,1.7,10.9-4.2,14.7
		c0.9,2.5,1.7,5.1,4.5,6.2c2.8,1,4.8-0.6,6.6-2.1c-0.4-1.4-0.7-2.6-1.1-3.8c-0.1-0.4-0.4-0.9-0.7-1.2c-1.5-1.6-2-3.4-1.3-5.5
		c0.5-1.6,1.1-3.2,1.7-4.9c0.7-2,2.1-3.1,4.1-3.4c1-0.2,1.8-0.5,2.6-1.2c1.3-1.2,2.9-1.5,4.6-1.1c2,0.6,3.9,1.3,5.9,2
		c1.6,0.7,2.5,2,2.8,3.8c0.2,1,0.5,1.9,1.3,2.7c1.3,1.4,1.5,3.1,1,4.8c-0.5,1.7-1.1,3.3-1.7,5c-0.7,2.1-2.3,3.2-4.4,3.6
		c-0.7,0.2-1.4,0.6-2.1,1c-1,0.5-2,1-3.1,1.6c0.5,3.8,3.6,5.4,7.1,3.7c1-0.5,2-1,2.9-1.5c-1.6-7.8,0.7-12.3,6.8-13.7
		c5-1.1,10.1,1.9,11.3,6.8c0.7,3,0.3,5.8-1.5,8.4c-1.8,2.5-4.4,3.6-7.4,3.7c0.5,4.2,4.4,6.7,7.2,5.1c-0.1-2-0.5-3.9-0.3-5.7
		c0.6-5.1,5.1-7.8,10-6.2c0.5,0.2,1.2,0.1,1.7-0.1c2.3-1,4.7-1,7,0c2.3,1,3.5,2.8,3.6,5.4c0,2.6,0.1,5.2,0,7.8
		c-0.1,4.6-4.9,7.3-9.4,5.1c-1.2-0.6-1.8-0.4-2.6,0.5c-1,1.1-2.1,2.1-3.3,2.9c-1.2,0.8-2.6,1.4-4,2.1c1.7,1.2,3.4,2.6,3.4,4.9
		c0,1.2-0.3,2.5-0.9,3.5c-1.9,3-4.5,3.3-9.5,1.4c-0.4,0.4-0.8,0.8-1.3,1.2c1.1,1.3,2.1,2.6,3.1,3.9c0.6,0.8,1,1.6,0.4,2.5
		c-0.6,0.9-1.4,0.9-2.3,0.8c-1.6-0.3-3.2-0.6-4.8-0.9c-0.6,0.8-0.5,1.5,0.1,2.2c1.2,1.4,2.1,2.9,2,4.9c-0.1,1.8-0.9,3.2-2.4,4.3
		c0.2,0.2,0.4,0.4,0.5,0.6c3.5,3.6,7.1,7.3,10.6,10.9c0.5,0.6,1,0.9,1.8,0.9c2.2-0.1,4.4,0,6.7,0c0-2.3,0-4.4,0-6.5
		c5.7,0,11.3,0,17,0c0,9.3,0,18.6,0,28.1c-3.7,0-7.4,0-11.4,0c0.2,0.6,0.3,0.9,0.5,1.3c6.5,14.9,9.1,30.6,8,46.8
		c-2.9,42.9-34,79.5-75.9,89.4c-5.7,1.4-11.5,2.2-17.4,2.5c-0.8,0-1.2,0.3-1.5,1c-1.3,3-2.6,6-4,9.2c-0.3-0.7-0.5-1.2-0.8-1.7
		c-1.1-2.5-2.2-5-3.3-7.6c-0.3-0.7-0.7-0.9-1.4-1c-18.8-1.1-36.1-6.8-51.4-17.7c-22-15.6-35.8-36.7-40.8-63.3
		c-3.8-19.9-1.4-39.2,6.6-57.8c0.1-0.3,0.2-0.5,0.3-0.8C37.2,156.9,37.1,156.8,37.1,156.5z M127.4,225.3c0-24.4,0-48.8,0-73
		c-21.3,0-42.5,0-63.7,0c21.2,48.9,42.3,97.7,63.3,146.5c0.1,0,0.2-0.1,0.4-0.1c0-12.8,0-25.5,0-38.3c-11.2-1.3-17.4-9.8-16.6-19
		C111.5,232.9,117.1,226.4,127.4,225.3z M134.2,292.3c0.8,0,1.5,0.1,2.2,0c4.1-0.6,8.3-1,12.3-2c23.2-5.4,41.9-17.7,56-36.8
		c10.7-14.5,16.6-30.9,18-48.9c0.5-6.7,0.3-13.3-0.6-20c-1.3-9.4-3.9-18.5-7.9-27.1c-0.3-0.6-0.8-1-1.1-1.3c-0.6-1.5-1-2.9-1.7-4.2
		c-0.9-1.7-2-3.3-2.9-5c-0.4-0.8-0.9-1-1.8-1c-5.8,0-11.7,0-17.5,0c-0.4,0-0.8,0-1.2,0.1c0,1.5,0,3,0,4.6c2.5,0,4.9,0,7.4,0
		c-0.2,0.5-0.3,0.8-0.5,1.1c-2.3,5.4-4.7,10.7-7,16.1c-0.3,0.8-0.3,1.4,0,2.1c5.8,12.8,7.6,26.2,4.7,40c-5.3,24.6-20,41.2-43.5,50
		c-0.8,0.3-1.2,0.7-1.6,1.4c-3.5,8.2-7.1,16.4-10.6,24.6C136,288.1,135.1,290.2,134.2,292.3z M42.3,156.5c-0.2,0.2-0.7,0.6-0.9,1.2
		c-5.3,11.4-8.1,23.3-8.7,35.8c-0.4,8.5,0.3,16.9,2.3,25.2c7.3,29.7,24.7,51.3,52.1,64.8c8.8,4.3,18.1,6.9,27.8,8.3
		c2.2,0.3,4.4,0.4,6.7,0.7c-0.1-0.4-0.1-0.5-0.2-0.7c-4.4-10.2-8.8-20.3-13.2-30.5c-0.2-0.4-0.7-0.9-1.2-1
		c-8.3-2.8-15.8-6.9-22.3-12.7c-14.3-12.6-22-28.4-23-47.4c-0.5-10.7,1.6-20.9,6.1-30.6c0.2-0.5,0.3-1.3,0-1.9
		c-1-2.5-2.1-4.9-3.2-7.4c-1.4-3.2-2.7-6.3-4.2-9.7c2.4,0,4.7,0,6.9,0c0-1.6,0-3,0-4.4c-0.2,0-0.3-0.1-0.4-0.1c-6.2,0-12.5,0-18.7,0
		c-0.4,0-0.9,0.4-1.1,0.7c-1.1,1.8-2.3,3.7-3.3,5.6C43.3,153.6,42.9,154.9,42.3,156.5z M176.6,133.7c3.8,0,7.6,0,11.3,0
		c0.1,0.5,0.1,0.9,0.2,1.2c3.8,0,7.5,0,11.3,0c-14.2-17.1-41.8-34.7-77.5-32.4c-26.2,1.7-48,12.8-65.9,32.4c4.1,0,7.8,0,11.5,0
		c0-0.5,0.1-0.9,0.1-1.3c3.8,0,7.5,0,11.3,0c0.1,0.5,0.1,0.8,0.2,1.4c0.5,0,1,0,1.4,0c8,0,15.9,0,23.9,0c1.1,0,2.2-0.2,3.3-0.5
		c5-1.6,10.1-2.6,15.3-3c8.7-0.6,17.2,0.4,25.5,3.1c0.8,0.3,1.6,0.4,2.5,0.4c8,0,16.1,0,24.1,0c0.4,0,0.9,0,1.3,0
		C176.4,134.6,176.5,134.2,176.6,133.7z M70.5,173.7c-6.2,13.8-7.5,34.9,2.7,53.4c7.3,13.3,18.1,22.7,32.2,28.4
		c0.1-0.1,0.2-0.2,0.4-0.3C94,228.1,82.3,201,70.5,173.7z M185.2,174.1c-11.8,27.2-23.4,54.1-35.1,81.2
		C183.4,242.7,198,204.9,185.2,174.1z M220.7,79.4c0,0-0.1,0-0.1,0c0-1.2,0-2.4,0-3.6c0-1-0.5-1.7-1.4-2.2c-1.8-1.1-3.7-0.6-4.6,1.3
		c-0.5,1-1,0.9-1.7,0.4c-0.7-0.5-1.4-1-2.2-1.4c-1.1-0.6-2.2-0.4-3.2,0.4c-2.2,1.7-2.4,5-0.3,6.9c1.1,1,1.1,1.3,0.1,2.4
		c-2.5,2.6-5.6,3.5-9.1,2.5c-3.4-1-5.6-3.4-6.2-6.9c-0.3-1.8-0.9-3-2.6-3.8c-0.6-0.2-0.9-0.3-1.5,0c-1.3,0.7-2.7,1.4-4.1,1.9
		c-5,1.6-9.1-0.2-11-4.9c-0.4-0.9-0.6-1.9-0.8-2.9c-0.1-0.7-0.4-1.2-1.1-1.2c-0.5,0-1,0.1-1.4,0.3c-0.3,0.2-0.6,0.6-0.9,0.8
		c-2.5,2.1-5.3,3.5-8.7,2.9c-4.6-0.9-6.9-4.1-8.1-8.3c-0.1-0.5-0.5-1.2-0.8-1.2c-1,0-2.1-0.9-3,0.4c-1.3,1.8-3,3.1-5.1,4.1
		c-4.1,1.9-7.5,1.3-10.6-1.9c-1.2-1.3-2.1-2.9-3.2-4.3c-0.3-0.3-0.7-0.7-1.1-0.8c-0.7-0.1-1.5-0.3-1.9,0.7c-0.6,1.3-1.4,2.5-2.3,3.7
		c-2.5,3.2-6.4,4.8-10.9,2.9c-2.3-1-4.3-2.5-5.8-4.5c-0.8-1.1-1.8-0.1-2.6-0.2c-0.3,0-0.7,0.5-0.8,0.9c-0.7,1.5-1.2,3.2-2.1,4.5
		c-2.2,3.3-5.3,4.8-9.4,4c-2.4-0.5-4.5-1.7-6.2-3.5c-0.5-0.5-1-0.5-1.7-0.4c-1.4,0.3-1.2,1.4-1.4,2.3c-1.1,5-4.4,7.7-9.3,7
		c-2-0.3-3.9-1.4-5.9-2.1c-0.3-0.1-0.8-0.4-0.9-0.3c-1.4,0.8-3.4,1.1-3.2,3.4c0,0.1,0,0.2,0,0.4c-1.7,7.3-9.9,9.3-14.6,5.2
		c-1.8-1.6-1.9-1.7-0.3-3.6c1.4-1.7,1.4-4.1-0.2-5.9c-1.4-1.6-2.8-1.7-5-0.3c-0.2,0.2-0.5,0.3-0.7,0.5c-1.4,1-1.4,1-2.3-0.4
		c-0.8-1.3-1.9-1.7-3.5-1.3c-1.5,0.3-2.4,1.2-2.4,2.7c-0.1,2.3-0.1,4.6,0,7c0.1,1.7,1.1,2.5,2.8,2.4c1.4-0.1,2.4-0.9,3.2-2
		c0.9-1.4,1.1-1.4,2.3-0.1c1.3,1.4,2.6,2.8,4,4.2c3.8,3.9,11.7,4.7,16,0.5c1.8-1.8,3.2-3.9,4.2-6.2c0.5-1.1,1.1-1.4,2.2-1.1
		c1.9,0.5,3.8,1,5.7,1.2c4.6,0.5,8.3-1.2,9.6-5.9c0.1-0.5,0.3-1,0.5-1.5c0.5-1.5,0.7-1.6,2-0.8c2.1,1.4,4.5,2.2,7,2.3
		c5.6,0.1,10.1-2,12.5-7.4c0.3-0.7,0.8-0.9,1.4-0.3c0.3,0.3,0.5,0.5,0.8,0.8c4,4,10.3,4.6,14.9,1.2c1.3-0.9,2.2-2.3,3.2-3.5
		c0.7-0.8,1.1-0.9,1.8,0c0.2,0.3,0.4,0.6,0.6,0.9c3,4,7,5.4,11.8,4.6c2.5-0.4,4.5-1.9,6.3-3.6c0.9-0.9,1.2-0.8,1.7,0.3
		c0.3,0.6,0.6,1.3,1,1.9c4.1,5.6,11.6,7,17.7,3.3c2.1-1.2,2.1-1.2,2.7,1c1.5,5.1,4.2,7.1,9.5,6.8c2.1-0.1,4.1-0.7,6.2-1.2
		c1.5-0.3,1.7-0.3,2.3,1.1c0.6,1.2,1.1,2.4,1.9,3.5c2.1,2.9,4.5,5.3,8.4,5.5c4,0.2,7.5-0.6,10.3-3.7c1.3-1.4,2.6-2.8,3.9-4.2
		c0.7-0.7,1.1-0.7,1.8,0.2c0.6,0.8,1.3,1.6,2.1,2c2.1,1.1,4-0.1,4-2.4C220.7,81.5,220.7,80.4,220.7,79.4z M68.7,101.9
		c0.3,0.3,1,0.6,1.4,1.1c0.5,0.7,0.2,1.4-0.3,2.1c-1,1.1-2,2.3-3.1,3.4c-0.9,0.9,0.1,1.4,0.4,2c0.4,0.7,0.9,0.5,1.4,0.2
		c4.4-2.4,8.8-4.9,13.3-7.1c13.4-6.4,27.5-10,42.3-10.4c8.4-0.2,16.7,0,24.9,1.8c13.8,3.1,26.8,8.2,38.7,15.8c0.6,0.4,1,0.6,1.5-0.1
		c0.4-0.6,0.9-1,0.1-1.8c-1.2-1.1-2.3-2.4-3.2-3.7c-0.3-0.5-0.4-1.5-0.2-1.9c0.3-0.5,1.1-0.9,1.7-0.9c1.4,0,2.9,0.3,4.3,0.5
		c1.9,0.3,1.9,0.3,2.7-1.4c0.4-0.8,0.4-1.2-0.5-1.7c-18.1-10.6-37.5-17.3-58.5-19.1c-10.8-0.9-21.4-0.2-31.9,2.1
		C89.4,86,75.9,91.2,63,98.3c-2.3,1.3-2.3,1.2-1.1,3.6c0.4,0.8,0.9,1,1.7,0.8C65.2,102.4,66.7,102.2,68.7,101.9z M131,75.4
		c-11.4-0.1-19.3,0.7-27.5,2.2C88.6,80.4,74.5,85.2,61,92.1c-3.2,1.6-6.2,3.7-9.3,5.6c-1.3,0.8-1.2,1.8,0,2.7
		c1.1,0.8,2.2,0.6,3.3-0.1c7.4-4.4,15-8.4,23-11.7C91.9,83,106,79,121,78c7.8-0.5,15.6-0.1,23.3,1.1c7.5,1.1,14.7,3.1,21.8,5.4
		c10.3,3.3,20.1,7.9,29.4,13.3c1.9,1.1,3.8,2.2,5.7,3.3c1.2,0.6,2.7,0.2,3.4-0.9c0.5-0.9,0.2-1.8-1-2.7c-0.9-0.6-1.7-1.2-2.6-1.7
		c-7.2-3.9-14.4-7.6-22.1-10.5C162.2,79.1,145.2,75.2,131,75.4z M127.7,98.7c9.9,0.1,19.6,1.6,28.9,4.8c7.8,2.7,15.6,5.4,22.7,9.9
		c3.1,1.9,6.1,3.9,9.2,5.9c1.5,0.9,3.2,0.2,3.2-1.4c0-0.7-0.4-1.5-1-1.9c-1.3-1.2-2.7-2.2-4.2-3.2c-15.6-10.2-32.8-15.6-51.2-17.4
		c-6.8-0.6-13.6-0.2-20.3,0.6c-6.5,0.7-12.8,2.3-18.9,4.3c-10.2,3.3-20,7.7-28.8,13.9c-0.7,0.5-1.3,1.2-2,1.9
		c-0.8,0.9-0.5,1.8,0.2,2.5c0.8,0.8,1.6,0.8,2.5,0.2c0.6-0.4,1.1-0.8,1.6-1.2c8.7-5.6,17.7-10.4,27.6-13.6
		C107.2,100.9,117.2,98.6,127.7,98.7z M132.9,42c0-0.8,0-1.4,0-2c-0.1-1.7-1-2.5-2.7-2.5c-1.6,0-3.2,0-4.8,0c-1.7,0-2.5,1-2.6,2.6
		c0,0.6,0,1.2,0,1.9c-0.7,0-1.2,0-1.7,0c-1.9,0-2.9,0.9-2.9,2.8c0,1.4,0,2.8,0,4.2c0,2.2,0.9,3,3.1,3.1c0.5,0,0.9,0,1.5,0
		c0,0.7,0,1.2,0,1.7c0,1.8,0.7,2.7,2.5,2.8c1.7,0.1,3.4,0.1,5,0c1.7-0.1,2.4-0.9,2.5-2.6c0-0.6,0-1.2,0-1.9c0.7,0,1.1,0,1.6,0
		c1.9,0,2.8-0.8,2.9-2.7c0.1-1.7,0-3.4-0.1-5.1c-0.1-1.4-1-2.2-2.5-2.2C134.3,41.9,133.7,42,132.9,42z M40.2,153.7
		c0-7.7,0-15.3,0-22.8c-3.9,0-7.8,0-11.6,0c0,7.7,0,15.2,0,22.8C32.5,153.7,36.3,153.7,40.2,153.7z M215.1,130.8
		c0,7.7,0,15.3,0,22.9c3.9,0,7.8,0,11.6,0c0-7.7,0-15.2,0-22.9C222.9,130.8,219,130.8,215.1,130.8z M176.4,137.5
		c-12.4,0-24.8,0-37.2,0c0,2,0,3.9,0,5.9c12.4,0,24.8,0,37.2,0C176.4,141.5,176.4,139.6,176.4,137.5z M78.9,143.4
		c12.4,0,24.8,0,37.2,0c0-2,0-3.9,0-5.9c-12.4,0-24.8,0-37.2,0C78.9,139.6,78.9,141.5,78.9,143.4z M170.3,51.1c-1-0.1-1.6,0.4-2,1.2
		c-0.6,1.4-1.1,2.8-1.5,4.3c-0.5,1.5-0.1,2.3,1.4,2.8c1.1,0.4,1.4,1,1,2.1c-0.5,1.6-0.1,2.3,1.4,2.9c1.3,0.5,2.5,1,3.8,1.4
		c1.6,0.5,2.4,0.2,3-1.4c0.4-1.1,1-1.3,2-0.9c1.6,0.5,2.4,0.1,3-1.4c0.5-1.3,0.9-2.5,1.4-3.8c0.5-1.5,0.1-2.4-1.3-3
		c-1-0.4-1.4-0.9-1-2.1c0.5-1.6,0.1-2.4-1.5-3c-1.3-0.5-2.5-0.9-3.8-1.4c-1-0.3-1.9-0.3-2.6,0.6C172.4,51,172.1,51.1,170.3,51.1z
		 M71.9,56.8c0.6,1.8,1.1,3.4,1.7,4.9c0.7,1.8,1.4,2.1,3.1,1.6c1-0.3,1.6-0.2,2,0.9c0.5,1.6,1.5,1.9,3.1,1.4
		c1.2-0.4,2.3-0.8,3.5-1.2c1.7-0.6,2.2-1.4,1.6-3.2c-0.4-1.1-0.1-1.5,0.9-1.8c1.6-0.6,2-1.5,1.5-3.1c-0.4-1.2-0.9-2.5-1.3-3.7
		c-0.6-1.6-1.4-2-3-1.5c-1.2,0.4-1.7,0.1-2.1-1c-0.6-1.5-1.3-1.8-2.8-1.3c-1.3,0.4-2.6,0.9-3.9,1.4c-1.4,0.6-2,1.4-1.5,2.8
		c0.5,1.4,0,1.9-1.2,2.4C72.8,55.5,72.4,56.2,71.9,56.8z M68.2,67.7c0-4.2-3-7.2-7.1-7.2c-4.2,0-7.2,3-7.1,7.2
		c0,4.2,2.9,7.1,7.1,7.1C65.2,74.9,68.1,71.9,68.2,67.7z M144.4,53.3c0,4.2,2.9,7.2,7.2,7.1c4.2,0,7.2-3,7.1-7.2
		c0-4.1-3.1-7.1-7.1-7.1C147.4,46.1,144.4,49.1,144.4,53.3z M96.5,53.3c0,4.2,3,7.1,7.2,7.1c4.2,0,7.1-3,7.1-7.2
		c-0.1-4.1-3.1-7.1-7.2-7.1C99.5,46.1,96.5,49.2,96.5,53.3z M194.9,74.7c4.2,0,7.2-3,7.1-7.2c0-4.1-3.1-7.1-7.1-7.1
		c-4.1,0-7.2,3.1-7.2,7.2C187.7,71.9,190.6,74.7,194.9,74.7z M212.6,143.4c0-2,0-4,0-5.9c-8.2,0-16.4,0-24.6,0c0,2,0,3.9,0,5.9
		C196.2,143.4,204.4,143.4,212.6,143.4z M42.8,137.5c0,2,0,3.9,0,5.9c8.3,0,16.4,0,24.6,0c0-2,0-3.9,0-5.9
		C59.2,137.5,51.1,137.5,42.8,137.5z M127.3,258.5c0.1,0.1,0.1,0.2,0.1,0.3c1-0.5,2.3-0.8,3.1-1.6c3.9-3.9,7.1-9.6,4.5-16.2
		c-0.2-0.5-0.7-1.1-1.2-1.2c-2.2-0.4-6.1,1.5-5.8,4.7c0.2,2.3-0.7,4.1-2.2,5.7c-0.5,0.5-0.5,1.4-0.7,2.1c-0.2,1,0,2.2-0.4,3.1
		c-1,2.6-1,2.6,1.8,2.9C126.8,258.6,127.1,258.5,127.3,258.5z M121.6,237.8c0.4,2.2,1.6,3.5,3.2,4.5c1.2,0.8,1.8,0.7,2.6-0.5
		c1.4-2.2,3.5-3.2,6.1-3.4c0.4,0,1,0,1.2-0.3c1.6-1.7,3.5-2.7,5.8-3.2c0.7-0.2,1-0.7,0.6-1.3c-0.9-1.3-1.8-2.7-3.6-2.8
		c-2.1-0.1-4.2-0.3-6.2,0.1c-3.4,0.5-6.5,1.9-8.7,4.8C122.2,236.4,121.9,237.2,121.6,237.8z M128.9,149.2c3.1,0,6.1,0,9,0
		c0-4.8,0-9.5,0-14.2c-3,0-6,0-9,0C128.9,139.7,128.9,144.4,128.9,149.2z M186.7,142.1c0-2,0-3.9,0-5.9c0-0.9-0.2-1.4-1.3-1.3
		c-2.2,0.1-4.5,0.1-6.7,0c-0.9,0-1.2,0.2-1.2,1.1c0,4,0,8.1,0,12.1c0,0.9,0.3,1.2,1.2,1.1c2.2,0,4.5-0.1,6.7,0
		c1.1,0,1.3-0.4,1.3-1.3C186.7,146,186.7,144,186.7,142.1z M168.1,150.6c0.1-0.1,0.1-0.2,0.2-0.3c-1.5-1.2-3-2.4-4.6-3.5
		c-0.6-0.4-1.4-0.7-2.2-0.7c-7-0.1-14,0-21,0c-0.4,0-0.8,0-1.2,0.1c0,1.5,0,3,0,4.5C148.9,150.6,158.5,150.6,168.1,150.6z
		 M116.1,146.1c-0.5,0-1,0-1.4,0c-5.6,0-11.1,0-16.7,0c-5.8,0-5.8,0-10.2,3.9c-0.2,0.2-0.3,0.4-0.5,0.7c9.7,0,19.2,0,28.8,0
		C116.1,149.1,116.1,147.7,116.1,146.1z M132.9,257.3c0.1,0.1,0.2,0.2,0.3,0.3c0.4-0.1,0.8-0.1,1.2-0.3c7.6-3.3,11.8-12.1,8.5-20.3
		c-0.3-0.7-0.8-1.1-1.5-0.9c-1.5,0.6-3,1.2-4.5,1.9c-0.9,0.5-1.1,1.4-0.6,2.4c0.4,0.8,0.7,1.6,0.9,2.5c1,4.8-0.5,9-3.3,12.9
		C133.5,256.2,133.2,256.7,132.9,257.3z M126.8,245.9c-0.1,0-0.2-0.1-0.3-0.1c0.3-1-0.4-1.4-1.2-1.7c-2-0.8-3.6-2.2-4.6-4.2
		c-0.2-0.5-0.7-0.8-1.2-1.1c-1.4-0.9-2.9-1.8-4.3-2.7c-1-0.7-1.4-0.7-1.8,0.4c-0.5,1.4-0.9,2.8-1.3,4.2c-0.1,0.3,0,0.8,0.2,1
		c0.8,1.1,1.5,2.4,2.5,3.3c2.2,2.2,4.9,3.5,7.8,4.6c1,0.4,1.9,0.2,2.5-0.6C125.8,248.1,126.2,246.9,126.8,245.9z M134.2,228.9
		c0-0.2,0-0.3,0.1-0.5c-0.4-0.2-0.8-0.6-1.2-0.7c-2.4-0.5-4.8-1-7.3-0.6c-4,0.7-7.3,2.6-9.9,5.5c-0.6,0.7-0.7,1.4,0.2,2
		c1,0.7,2,1.5,3,2.2c0.8,0.5,1.4,0.3,1.9-0.5c0.5-0.9,1-1.7,1.7-2.5c2.3-2.6,5.4-3.8,8.7-4.4C132.1,229.3,133.1,229.1,134.2,228.9z
		 M112.5,245.4c0,0.6,0,1,0.1,1.3c1.3,4.5,3.9,7.9,8.1,10c0.4,0.2,1.2,0.3,1.6,0.1c1.3-0.9,1.5-2.2,1.5-3.7c0-1.2-0.7-1.8-1.8-2.2
		c-2.9-1.1-5.5-2.5-7.8-4.5C113.7,246,113.2,245.8,112.5,245.4z M187.6,103.8c0,0.1-0.1,0.2-0.1,0.3c1,1.1,2.1,2.2,3,3.4
		c1,1.2,2.2,1.9,3.7,2.1c1.5,0.2,3,0.6,4.5,0.8c0.1-0.1,0.1-0.2,0.2-0.3c-1.4-1.7-2.8-3.4-4.3-5.1c-0.1-0.1-0.3-0.2-0.4-0.2
		C191.9,104.5,189.7,104.2,187.6,103.8z M68.5,103.9c-0.1-0.1-0.1-0.2-0.2-0.3c-1.6,0.2-3.1,0.6-4.7,0.7c-1.6,0.1-2.8,0.9-3.7,2.1
		c-1,1.3-1.9,2.5-3.1,4c2-0.4,3.6-0.7,5.2-1c0.7-0.2,1.6-0.2,2-0.6C65.7,107.2,67.1,105.5,68.5,103.9z M79,146.2c0,1.6,0,3,0,4.6
		c0.8-0.1,1.7,0.1,2.2-0.3c1.6-1.3,3.1-2.8,4.8-4.3C83.5,146.2,81.3,146.2,79,146.2z M176.4,146.2c-2.3,0-4.5,0-6.9,0
		c1.5,1.3,2.8,2.5,4.1,3.8c0.9,0.9,1.7,0.9,2.8,0.6C176.4,149.1,176.4,147.7,176.4,146.2z"/>
	<path class="st0" d="M127.4,225.3c-10.2,1.1-15.9,7.6-16.6,16.1c-0.8,9.3,5.5,17.7,16.6,19c0,12.8,0,25.5,0,38.3
		c-0.1,0-0.2,0.1-0.4,0.1c-21.1-48.8-42.2-97.6-63.3-146.5c21.2,0,42.4,0,63.7,0C127.4,176.6,127.4,200.9,127.4,225.3z"/>
	<path class="st0" d="M134.2,292.3c0.9-2.1,1.8-4.2,2.7-6.2c3.5-8.2,7.1-16.4,10.6-24.6c0.3-0.8,0.8-1.1,1.6-1.4
		c23.5-8.8,38.3-25.4,43.5-50c2.9-13.7,1.1-27.2-4.7-40c-0.3-0.8-0.3-1.4,0-2.1c2.4-5.4,4.7-10.7,7-16.1c0.1-0.3,0.3-0.6,0.5-1.1
		c-2.5,0-5,0-7.4,0c0-1.6,0-3.1,0-4.6c0.4,0,0.8-0.1,1.2-0.1c5.8,0,11.7,0,17.5,0c0.9,0,1.4,0.2,1.8,1c0.9,1.7,2,3.3,2.9,5
		c0.7,1.3,1.1,2.7,1.7,4.2c0.3,0.3,0.8,0.7,1.1,1.3c4,8.6,6.6,17.7,7.9,27.1c0.9,6.6,1.2,13.3,0.6,20c-1.4,18-7.3,34.3-18,48.9
		c-14.1,19.1-32.8,31.4-56,36.8c-4,0.9-8.2,1.3-12.3,2C135.7,292.4,135,292.3,134.2,292.3z M196.8,219.6c-1,2.7-2.1,5.2-3,7.8
		c-0.3,0.8-0.3,1.7-0.2,2.5c0.1,1.8,1.1,3.1,2.7,3.7c1.6,0.7,3.1,0.6,4.5-0.5c0.2-0.2,0.5-0.3,0.7-0.5c0.1,0.1,0.1,0.1,0.1,0.2
		c0.1,0.2,0.1,0.4,0.2,0.6c0.5,1.6,1.6,2.7,3.2,3c1.8,0.4,3.5-0.1,4.4-1.7c1.5-2.6,2.6-5.4,3.9-8.3
		C207.8,224.1,202.3,221.9,196.8,219.6z M193.9,255c5,0.1,8.8-4.5,7.8-9.4c-0.8-3.9-4.5-7.1-9-7.9c-4.2-0.7-9,2.9-8.7,8.1
		C184.2,250.6,189,254.8,193.9,255z M217.7,196.5c-1.2,0.1-2.3,0.1-3.3,0.2c-2.8,0.1-5.5,0.3-8.3,0.3c-1.7,0-2.7-0.7-3.1-1.9
		c-0.7-2.2,0.4-4,2.8-4.3c1.4-0.2,2.9-0.2,4.3-0.3c2.4-0.2,4.8-0.3,7.3-0.5c-0.1-1.3-0.2-2.4-0.3-3.6c-4,0.2-8,0.4-12,0.8
		c-2.1,0.2-4,1.2-5,3.3c-2.4,5,0.8,10.2,6.3,10.1c2.2,0,4.4-0.2,6.6-0.3c1.6-0.1,3.2-0.2,4.9-0.4
		C217.9,198.8,217.8,197.7,217.7,196.5z M216,179.3c-1.1-3.6-2.1-7.2-3.1-10.8c-5.7,1.7-11.4,3.3-17.1,4.9c0.4,1.2,0.7,2.3,1,3.4
		c2.3-0.6,4.5-1.3,6.8-1.9c0.7,2.2,1.3,4.4,2,6.6c1.1-0.3,2.1-0.6,3.1-0.9c-0.6-2.2-1.2-4.3-1.9-6.6c1.3-0.4,2.6-0.7,3.9-1.1
		c0.5,1.7,0.9,3.2,1.4,4.8c0.9,2.9,0.9,2.9,3.7,1.8C215.8,179.5,215.9,179.4,216,179.3z M215.4,219.5c0.7-4.2,1.4-8.2,2.1-12.3
		c-1.2-0.2-2.2-0.4-3.2-0.5c-0.3,1.6-0.5,2.9-0.8,4.4c-4.8-0.8-9.5-1.6-14.3-2.4c-0.2,1.2-0.4,2.3-0.6,3.5c4.8,0.8,9.5,1.7,14.2,2.5
		c-0.2,1.6-0.4,3-0.7,4.5C213.3,219.2,214.2,219.3,215.4,219.5z M189.6,263.5c-3.9-4.6-7.6-9.1-11.5-13.6c-2.8,2.4-5.5,4.6-8.3,7
		c0.7,0.9,1.4,1.7,2.1,2.5c1.9-1.6,3.7-3.1,5.5-4.6c3.2,3.7,6.2,7.4,9.3,11.1C187.7,265.1,188.6,264.4,189.6,263.5z"/>
	<path class="st0" d="M42.3,156.5c0.6-1.5,1.1-2.8,1.7-4c1-1.9,2.1-3.7,3.3-5.6c0.2-0.3,0.7-0.7,1.1-0.7c6.2,0,12.5,0,18.7,0
		c0.1,0,0.2,0.1,0.4,0.1c0,1.4,0,2.9,0,4.4c-2.2,0-4.5,0-6.9,0c1.5,3.4,2.8,6.5,4.2,9.7c1.1,2.5,2.2,4.9,3.2,7.4
		c0.2,0.5,0.2,1.4,0,1.9c-4.5,9.7-6.6,19.9-6.1,30.6c1,19,8.7,34.9,23,47.4c6.6,5.7,14.1,9.9,22.3,12.7c0.5,0.2,1,0.6,1.2,1
		c4.4,10.2,8.8,20.3,13.2,30.5c0.1,0.1,0.1,0.3,0.2,0.7c-2.3-0.2-4.5-0.4-6.7-0.7c-9.7-1.3-19.1-3.9-27.8-8.3
		C59.7,270,42.3,248.4,35,218.7c-2-8.3-2.7-16.7-2.3-25.2c0.5-12.5,3.4-24.4,8.7-35.8C41.6,157.1,42.1,156.7,42.3,156.5z
		 M75.3,270.7c3.9-4.6,7.7-9.1,11.5-13.6c-0.8-0.7-1.5-1.3-2.2-1.9c-2-1.4-3.9-3-5.9-4.2c-1.6-0.9-3.3-0.5-4.7,0.8
		c-1.4,1.3-1.9,2.9-1.2,4.8c0.1,0.3,0.2,0.6,0.2,0.9c-2.3-0.1-4,0.7-4.9,2.8c-0.8,2-0.1,3.7,1.2,5C71.2,267.2,73.2,268.9,75.3,270.7
		z M57.8,230.4c-1.2-2-1.2-2,0.2-3.7c0.8-1,1.6-2,2.3-3c0.2-0.3,0.5-0.8,0.4-1.1c-0.4-1.1-0.9-2.2-1.4-3.4c-1.6,2.1-3.1,4-4.6,5.9
		c-0.5-0.3-0.8-0.6-1.2-0.8c-2.3-1.2-4.5-0.8-6.5,0.6c-1.9,1.3-2.6,3.2-2,5.2c0.8,2.8,2,5.4,3,8.2c5.6-2.4,11-4.6,16.5-6.9
		c-0.5-1.2-0.9-2.2-1.4-3.3C61.3,229,59.6,229.7,57.8,230.4z M48.5,198.3c0-0.1,0.1-0.2,0.1-0.4c0.4,0,0.7,0,1.1,0
		c4-0.2,6.8-2.7,7.6-6.7c0.7-3.3-1.3-6.8-4.6-8.4c-2.1-1-4.4-1.2-6.7-1c-3.6,0.4-6.4,3-7,6.8c-0.4,2.5,0.6,6.3,4.3,8
		C44.9,197.5,46.7,197.8,48.5,198.3z M40.6,205.1c-1.5,2.4-1.7,4.9-0.8,7.4c1.4,4.1,5,6,9.9,5.4c6.6-0.8,9.9-7,6.8-12.7
		c-1.4-2.6-1.8-2.8-4.7-2.4c-1.8,0.3-3.7,0.6-5.6,0.9c0.4,2.3,0.7,4.4,1.1,6.6c1.1-0.2,2-0.4,3-0.5c-0.1-1.1-0.2-2.1-0.4-3.1
		c0.7-0.1,1.3-0.1,1.8-0.3c1.2-0.4,1.8,0.2,2.2,1.2c0.8,1.9,0.2,4.2-1.5,5.4c-2,1.4-4.3,1.7-6.6,1.1c-2.1-0.6-3.2-2.1-3.1-4.3
		c0-1,0.4-2.1,0.6-3.2C42.5,206.1,41.6,205.6,40.6,205.1z M54.2,248.6c2.4-1.7,4.6-3.4,6.8-5c1.1-0.8,2.2-1.6,3.4-2.2
		c1.2-0.6,2.5-0.2,3.4,0.8c0.9,1.1,1.1,2.5,0.3,3.6c-0.6,0.7-1.3,1.4-2.1,1.9c-2.6,2-5.3,3.9-8.1,5.9c0.7,1,1.4,1.9,2.1,2.9
		c3.2-2.4,6.4-4.7,9.5-7.1c3.8-3,3.1-6.8,0.5-9.8c-2.1-2.5-5.2-2.9-8-1.2c-1,0.6-2,1.3-3,2c-2.3,1.7-4.6,3.4-7,5.2
		C52.9,246.7,53.5,247.6,54.2,248.6z M47.6,163.8c-2,1.3-3.4,2.9-4,5.2c-0.7,2.6,0.1,5,2,6.3c1.9,1.2,4.1,1,6.2-0.9
		c1.1-1,2.1-2.2,3.3-3.2c0.5-0.4,1.4-0.6,2-0.5c0.9,0.2,1.1,1.1,1,1.9c-0.2,1.4-1,2.4-2,3.3c-0.5,0.4-0.9,0.7-1.4,1.1
		c0.6,1,1.1,1.8,1.7,2.8c2.5-1.4,4.2-3.3,4.8-6c0.7-2.9-0.2-5-2.4-6.3c-2.4-1.3-4.2-0.9-6.5,1.4c-0.9,0.9-1.8,1.9-2.8,2.8
		c-0.7,0.6-1.5,0.9-2.3,0.2c-0.8-0.6-0.8-1.5-0.3-2.2c0.7-1.1,1.6-2.2,2.5-3.4C48.8,165.6,48.2,164.8,47.6,163.8z"/>
	<path class="st0" d="M176.6,133.7c-0.1,0.5-0.1,0.8-0.2,1.3c-0.5,0-0.9,0-1.3,0c-8,0-16.1,0-24.1,0c-0.8,0-1.7-0.1-2.5-0.4
		c-8.3-2.7-16.8-3.7-25.5-3.1c-5.2,0.3-10.3,1.4-15.3,3c-1,0.3-2.2,0.5-3.3,0.5c-8,0-15.9,0-23.9,0c-0.5,0-0.9,0-1.4,0
		c-0.1-0.5-0.1-0.9-0.2-1.4c-3.8,0-7.5,0-11.3,0c0,0.4-0.1,0.8-0.1,1.3c-3.7,0-7.4,0-11.5,0c17.9-19.7,39.6-30.7,65.9-32.4
		c35.7-2.3,63.3,15.3,77.5,32.4c-3.8,0-7.5,0-11.3,0c0-0.4-0.1-0.8-0.2-1.2C184.1,133.7,180.4,133.7,176.6,133.7z M157.9,122.6
		c0.3-0.1,0.6-0.3,1-0.4c1.6-0.7,2.3-2,2.4-3.7c0.2-1.7-0.5-3.1-2-3.8c-2.8-1.3-5.6-2.3-8.6-3.5c-1.9,5.8-3.8,11.4-5.7,17.2
		c2.5,0.8,4.9,1.5,7.3,2.3c0.5,0.2,1.1,0.2,1.6,0.3c3.4,0.4,6-2.2,5.3-5.5C159.1,124.5,158.4,123.6,157.9,122.6z M128.8,108.6
		c-0.2,4.6-0.5,9-0.7,13.4c0,0.3,0.1,0.6,0.2,0.9c0.9,3,3.7,4.6,7.5,4.3c3.1-0.3,5.1-2.3,5.5-5.5c0.2-2.2,0.5-4.4,0.7-6.5
		c0.2-1.8,0.2-3.6,0.4-5.4c-1.2-0.1-2.3-0.2-3.5-0.3c-0.1,0.7-0.1,1.4-0.2,2c-0.3,3.3-0.6,6.7-1,10c-0.2,1.5-1.3,2.4-2.8,2.4
		c-2.2,0-3.5-1.4-3.3-3.6c0.1-2.1,0.4-4.3,0.6-6.4c0.1-1.6,0.2-3.2,0.3-4.9C131.3,108.9,130.2,108.7,128.8,108.6z M107.2,124.7
		c-0.3,0.5-0.5,0.8-0.7,1.1c-1.6,2.4-4.3,2.7-6.3,0.8c-1.7-1.7-2.5-3.8-2.4-6.2c0.1-2.9,2-4.3,4.8-3.9c0.6,0.1,1.2,0.2,1.8,0.3
		c0.3-1.1,0.6-2,1-3c-0.3-0.1-0.4-0.3-0.6-0.3c-4.2-1.7-9.2,0.8-10.4,5.3c-1,3.5,0.8,8.5,3.9,10.9c3.9,3.1,10,1.3,11.7-3.5
		C109.1,125.8,108.2,125.3,107.2,124.7z M114.2,128c3.6-0.5,7.1-0.9,10.7-1.4c-0.2-1.1-0.3-2.2-0.4-3.2c-2.4,0.3-4.7,0.6-7.1,0.9
		c-0.7-4.8-1.3-9.5-1.9-14.4c-1.3,0.2-2.4,0.4-3.5,0.5C112.7,116.3,113.4,122.1,114.2,128z"/>
	<path class="st0" d="M70.5,173.7c11.8,27.3,23.5,54.4,35.2,81.5c-0.1,0.1-0.2,0.2-0.4,0.3c-14.1-5.6-24.9-15-32.2-28.4
		C63,208.6,64.3,187.6,70.5,173.7z"/>
	<path class="st0" d="M185.2,174.1c12.8,30.8-1.8,68.5-35.1,81.2C161.8,228.3,173.5,201.4,185.2,174.1z"/>
	<path class="st0" d="M220.7,79.4c0,1,0,2.1,0,3.1c0,2.4-1.9,3.6-4,2.4c-0.8-0.5-1.6-1.2-2.1-2c-0.6-0.9-1.1-0.9-1.8-0.2
		c-1.3,1.4-2.6,2.8-3.9,4.2c-2.8,3.1-6.4,3.9-10.3,3.7c-3.9-0.2-6.3-2.6-8.4-5.5c-0.8-1.1-1.3-2.3-1.9-3.5c-0.7-1.3-0.9-1.4-2.3-1.1
		c-2,0.5-4.1,1.1-6.2,1.2c-5.3,0.3-8-1.7-9.5-6.8c-0.7-2.3-0.7-2.3-2.7-1c-6.1,3.6-13.6,2.2-17.7-3.3c-0.4-0.6-0.7-1.3-1-1.9
		c-0.5-1.1-0.9-1.2-1.7-0.3c-1.8,1.8-3.8,3.2-6.3,3.6c-4.8,0.8-8.8-0.6-11.8-4.6c-0.2-0.3-0.4-0.6-0.6-0.9c-0.7-0.8-1.1-0.8-1.8,0
		c-1,1.2-2,2.5-3.2,3.5c-4.6,3.4-10.8,2.8-14.9-1.2c-0.3-0.3-0.5-0.5-0.8-0.8c-0.6-0.6-1-0.5-1.4,0.3c-2.4,5.4-6.8,7.5-12.5,7.4
		c-2.5,0-4.8-0.9-7-2.3c-1.3-0.8-1.6-0.8-2,0.8c-0.2,0.5-0.3,1-0.5,1.5c-1.3,4.7-5,6.4-9.6,5.9c-1.9-0.2-3.8-0.7-5.7-1.2
		c-1.1-0.3-1.8,0-2.2,1.1c-1,2.3-2.3,4.4-4.2,6.2c-4.3,4.2-12.2,3.4-16-0.5c-1.3-1.4-2.7-2.8-4-4.2c-1.2-1.2-1.3-1.3-2.3,0.1
		c-0.8,1.2-1.8,1.9-3.2,2c-1.7,0.1-2.7-0.7-2.8-2.4c-0.1-2.3-0.1-4.6,0-7c0-1.5,0.9-2.4,2.4-2.7c1.6-0.4,2.7,0,3.5,1.3
		c0.9,1.4,0.9,1.4,2.3,0.4c0.2-0.2,0.5-0.3,0.7-0.5c2.1-1.4,3.5-1.4,5,0.3c1.6,1.8,1.6,4.3,0.2,5.9c-1.6,1.8-1.5,2,0.3,3.6
		c4.7,4.1,12.9,2.1,14.6-5.2c0-0.1,0.1-0.2,0-0.4c-0.1-2.3,1.9-2.5,3.2-3.4c0.2-0.1,0.6,0.1,0.9,0.3c2,0.7,3.9,1.8,5.9,2.1
		c4.9,0.7,8.2-2,9.3-7c0.2-0.9,0-2,1.4-2.3c0.7-0.1,1.2-0.1,1.7,0.4c1.7,1.8,3.7,3,6.2,3.5c4,0.8,7.2-0.7,9.4-4
		c0.9-1.4,1.4-3,2.1-4.5c0.2-0.4,0.6-0.9,0.8-0.9c0.9,0.1,1.8-1,2.6,0.2c1.5,2,3.4,3.5,5.8,4.5c4.5,2,8.3,0.3,10.9-2.9
		c0.9-1.1,1.6-2.4,2.3-3.7c0.5-1,1.3-0.7,1.9-0.7c0.4,0,0.9,0.4,1.1,0.8c1.1,1.4,1.9,3,3.2,4.3c3.1,3.2,6.5,3.8,10.6,1.9
		c2-0.9,3.8-2.3,5.1-4.1c0.9-1.3,2-0.4,3-0.4c0.2,0,0.6,0.8,0.8,1.2c1.2,4.2,3.5,7.5,8.1,8.3c3.3,0.6,6.1-0.8,8.7-2.9
		c0.3-0.3,0.5-0.6,0.9-0.8c0.4-0.2,1-0.3,1.4-0.3c0.7,0,1,0.5,1.1,1.2c0.1,1,0.4,2,0.8,2.9c1.9,4.7,6,6.6,11,4.9
		c1.4-0.5,2.8-1.2,4.1-1.9c0.6-0.3,0.9-0.3,1.5,0c1.7,0.7,2.3,2,2.6,3.8c0.6,3.5,2.8,5.9,6.2,6.9c3.5,1,6.5,0.1,9.1-2.5
		c1.1-1.1,1.1-1.4-0.1-2.4c-2.1-1.9-1.9-5.2,0.3-6.9c1-0.8,2.1-1,3.2-0.4c0.8,0.4,1.5,0.9,2.2,1.4c0.8,0.6,1.2,0.6,1.7-0.4
		c0.9-1.9,2.8-2.4,4.6-1.3c0.8,0.5,1.4,1.2,1.4,2.2c0,1.2,0,2.4,0,3.6C220.6,79.4,220.7,79.4,220.7,79.4z"/>
	<path class="st0" d="M68.7,101.9c-2,0.3-3.5,0.5-5,0.8c-0.8,0.1-1.3,0-1.7-0.8c-1.2-2.3-1.3-2.3,1.1-3.6
		c12.9-7.1,26.4-12.3,40.8-15.6c10.5-2.4,21.2-3.1,31.9-2.1c21,1.8,40.4,8.5,58.5,19.1c0.8,0.5,0.9,0.9,0.5,1.7
		c-0.9,1.7-0.9,1.7-2.7,1.4c-1.4-0.2-2.8-0.5-4.3-0.5c-0.6,0-1.5,0.4-1.7,0.9c-0.3,0.5-0.2,1.5,0.2,1.9c1,1.3,2.1,2.5,3.2,3.7
		c0.8,0.8,0.3,1.2-0.1,1.8c-0.5,0.7-0.9,0.5-1.5,0.1c-11.9-7.6-24.9-12.7-38.7-15.8c-8.2-1.8-16.6-2-24.9-1.8
		c-14.9,0.4-29,4-42.3,10.4c-4.5,2.2-8.9,4.7-13.3,7.1c-0.5,0.3-1,0.5-1.4-0.2c-0.3-0.6-1.4-1.1-0.4-2c1.1-1.1,2.1-2.2,3.1-3.4
		c0.5-0.6,0.9-1.4,0.3-2.1C69.7,102.5,69,102.2,68.7,101.9z M84.7,93.8c0,2.7,2,4.5,4.7,3.9c3.3-0.8,6.6-1.8,9.9-2.8
		c1.3-0.4,2.7-0.9,3.9-1.6c1.7-0.9,2.2-2.9,1.4-4.8c-0.8-1.8-2.6-2.8-4.4-2.3c-4.3,1.3-8.5,2.6-12.8,3.9
		C85.7,90.7,84.7,92.2,84.7,93.8z M166.4,97.7c2.6,0,4.2-1.2,4.6-3.4c0.3-1.8-0.9-3.7-3-4.3c-4.1-1.3-8.2-2.5-12.2-3.7
		c-1.2-0.4-2.4-0.2-3.4,0.7c-2.5,2.1-1.8,5.7,1.4,6.8c3.8,1.3,7.7,2.5,11.5,3.7C165.7,97.6,166.2,97.7,166.4,97.7z M135.5,87.1
		c-0.5-0.7-0.8-1.4-1.4-1.8c-1.5-1.1-3.1-2.1-4.7-3.1c-0.9-0.6-1.8-0.6-2.7,0c-1.6,1-3.1,2-4.6,3c-1.6,1.1-1.6,2.7,0.1,3.7
		c1.6,0.9,3.2,1.8,4.9,2.6c0.6,0.3,1.4,0.3,2,0c1.7-0.8,3.4-1.7,4.9-2.7C134.6,88.5,135,87.8,135.5,87.1z M176.9,93.3
		c-2.5,0-4.6,2.1-4.6,4.7c0,2.5,2.1,4.5,4.6,4.5c2.5,0,4.7-2.1,4.7-4.6C181.6,95.4,179.5,93.3,176.9,93.3z M78.9,102.5
		c2.6,0,4.6-2.1,4.6-4.7c0-2.5-2.1-4.5-4.6-4.6c-2.6,0-4.6,2-4.6,4.6C74.3,100.5,76.4,102.5,78.9,102.5z M144.4,92.4
		c2.6,0,4.6-2.1,4.6-4.6c0-2.5-2.1-4.5-4.6-4.6c-2.6,0-4.7,2-4.7,4.6C139.8,90.4,141.9,92.4,144.4,92.4z M111.9,92.4
		c2.6,0,4.6-2.1,4.5-4.7c0-2.6-2.1-4.6-4.7-4.5c-2.5,0-4.5,2.1-4.5,4.6C107.3,90.4,109.3,92.5,111.9,92.4z"/>
	<path class="st0" d="M131,75.4c14.3-0.2,31.3,3.7,47.9,9.8c7.7,2.9,14.9,6.6,22.1,10.5c0.9,0.5,1.8,1.1,2.6,1.7
		c1.3,0.9,1.6,1.8,1,2.7c-0.6,1.1-2.2,1.6-3.4,0.9c-1.9-1.1-3.8-2.2-5.7-3.3c-9.4-5.4-19.1-10-29.4-13.3c-7.2-2.3-14.4-4.3-21.8-5.4
		c-7.7-1.1-15.5-1.6-23.3-1.1c-14.9,1-29.1,5-42.9,10.6c-8,3.3-15.6,7.3-23,11.7c-1.1,0.7-2.2,0.9-3.3,0.1c-1.3-0.9-1.3-1.9,0-2.7
		c3.1-1.9,6.1-4,9.3-5.6c13.4-6.8,27.5-11.7,42.4-14.4C111.6,76.1,119.5,75.3,131,75.4z"/>
	<path class="st0" d="M127.7,98.7c-10.5-0.1-20.5,2.2-30.4,5.3c-9.9,3.2-18.9,8-27.6,13.6c-0.6,0.4-1.1,0.8-1.6,1.2
		c-0.9,0.6-1.7,0.6-2.5-0.2c-0.8-0.8-1-1.6-0.2-2.5c0.6-0.7,1.2-1.4,2-1.9c8.8-6.3,18.5-10.6,28.8-13.9c6.2-2,12.5-3.5,18.9-4.3
		c6.7-0.8,13.5-1.2,20.3-0.6c18.5,1.7,35.6,7.2,51.2,17.4c1.5,1,2.9,2,4.2,3.2c0.5,0.4,0.9,1.3,1,1.9c0.1,1.6-1.7,2.3-3.2,1.4
		c-3.1-2-6.1-4-9.2-5.9c-7.1-4.4-14.9-7.2-22.7-9.9C147.3,100.3,137.6,98.8,127.7,98.7z"/>
	<path class="st0" d="M132.9,42c0.8,0,1.4,0,1.9,0c1.4,0,2.4,0.8,2.5,2.2c0.1,1.7,0.1,3.4,0.1,5.1c-0.1,1.9-0.9,2.7-2.9,2.7
		c-0.5,0-0.9,0-1.6,0c0,0.7,0,1.3,0,1.9c-0.1,1.7-0.8,2.5-2.5,2.6c-1.7,0.1-3.4,0.1-5,0c-1.8-0.1-2.5-1-2.5-2.8c0-0.5,0-1,0-1.7
		c-0.6,0-1,0-1.5,0c-2.2,0-3-0.9-3.1-3.1c0-1.4,0-2.8,0-4.2c0-2,0.9-2.8,2.9-2.8c0.5,0,1,0,1.7,0c0-0.7,0-1.3,0-1.9
		c0-1.7,0.9-2.6,2.6-2.6c1.6,0,3.2,0,4.8,0c1.7,0,2.6,0.8,2.7,2.5C133,40.6,132.9,41.2,132.9,42z"/>
	<path class="st0" d="M40.2,153.7c-3.9,0-7.7,0-11.6,0c0-7.6,0-15.2,0-22.8c3.8,0,7.7,0,11.6,0C40.2,138.4,40.2,146,40.2,153.7z"/>
	<path class="st0" d="M215.1,130.8c3.9,0,7.7,0,11.6,0c0,7.6,0,15.2,0,22.9c-3.9,0-7.7,0-11.6,0
		C215.1,146.1,215.1,138.5,215.1,130.8z"/>
	<path class="st0" d="M176.4,137.5c0,2,0,3.9,0,5.9c-12.4,0-24.7,0-37.2,0c0-2,0-3.9,0-5.9C151.6,137.5,164,137.5,176.4,137.5z"/>
	<path class="st0" d="M78.9,143.4c0-2,0-3.9,0-5.9c12.4,0,24.7,0,37.2,0c0,1.9,0,3.9,0,5.9C103.7,143.4,91.4,143.4,78.9,143.4z"/>
	<path class="st0" d="M170.3,51.1c1.9,0,2.1-0.1,3.3-1.6c0.7-0.9,1.6-1,2.6-0.6c1.3,0.4,2.6,0.9,3.8,1.4c1.5,0.6,2,1.5,1.5,3
		c-0.4,1.2,0,1.6,1,2.1c1.5,0.6,1.8,1.5,1.3,3c-0.4,1.3-0.9,2.6-1.4,3.8c-0.6,1.5-1.4,1.9-3,1.4c-1-0.3-1.6-0.1-2,0.9
		c-0.6,1.6-1.4,1.9-3,1.4c-1.3-0.4-2.6-0.9-3.8-1.4c-1.5-0.6-1.9-1.3-1.4-2.9c0.4-1.2,0.1-1.7-1-2.1c-1.5-0.5-1.8-1.4-1.4-2.8
		c0.5-1.4,1-2.9,1.5-4.3C168.6,51.4,169.3,51,170.3,51.1z"/>
	<path class="st0" d="M71.9,56.8c0.5-0.5,0.9-1.3,1.5-1.6c1.2-0.5,1.7-1,1.2-2.4c-0.5-1.4,0-2.2,1.5-2.8c1.3-0.5,2.6-1,3.9-1.4
		c1.5-0.5,2.3-0.1,2.8,1.3c0.4,1.1,0.9,1.5,2.1,1c1.6-0.6,2.4-0.1,3,1.5c0.5,1.2,0.9,2.5,1.3,3.7c0.5,1.6,0.1,2.5-1.5,3.1
		c-1,0.4-1.3,0.8-0.9,1.8c0.6,1.8,0.2,2.6-1.6,3.2c-1.2,0.4-2.3,0.8-3.5,1.2c-1.6,0.6-2.6,0.2-3.1-1.4c-0.4-1.1-0.9-1.2-2-0.9
		c-1.8,0.5-2.4,0.1-3.1-1.6C73.1,60.1,72.5,58.6,71.9,56.8z"/>
	<path class="st0" d="M68.2,67.7c0,4.2-3,7.2-7.2,7.1c-4.2,0-7.1-2.9-7.1-7.1c0-4.2,3-7.2,7.1-7.2C65.2,60.5,68.2,63.5,68.2,67.7z"
		/>
	<path class="st0" d="M144.4,53.3c0-4.2,3-7.2,7.2-7.2c4.1,0,7.1,3,7.1,7.1c0,4.2-2.9,7.2-7.1,7.2C147.3,60.4,144.4,57.5,144.4,53.3
		z"/>
	<path class="st0" d="M96.5,53.3c0-4.1,3-7.2,7.1-7.2c4.1,0,7.1,3,7.2,7.1c0.1,4.2-2.9,7.2-7.1,7.2C99.5,60.5,96.5,57.5,96.5,53.3z"
		/>
	<path class="st0" d="M194.9,74.7c-4.3,0-7.2-2.9-7.2-7.1c0-4.1,3-7.2,7.2-7.2c4.1,0,7.1,3,7.1,7.1
		C202.1,71.8,199.2,74.7,194.9,74.7z"/>
	<path class="st0" d="M212.6,143.4c-8.2,0-16.4,0-24.6,0c0-2,0-3.9,0-5.9c8.2,0,16.4,0,24.6,0C212.6,139.5,212.6,141.4,212.6,143.4z
		"/>
	<path class="st0" d="M42.8,137.5c8.2,0,16.4,0,24.6,0c0,2,0,3.9,0,5.9c-8.2,0-16.3,0-24.6,0C42.8,141.5,42.8,139.5,42.8,137.5z"/>
	<path class="st0" d="M127.3,258.5c-0.2,0-0.5,0-0.7,0c-2.8-0.2-2.8-0.3-1.8-2.9c0.4-1,0.2-2.1,0.4-3.1c0.1-0.7,0.2-1.6,0.7-2.1
		c1.6-1.6,2.4-3.4,2.2-5.7c-0.3-3.3,3.6-5.1,5.8-4.7c0.4,0.1,1,0.7,1.2,1.2c2.6,6.6-0.6,12.3-4.5,16.2c-0.8,0.8-2,1.1-3.1,1.6
		C127.4,258.7,127.4,258.6,127.3,258.5z"/>
	<path class="st0" d="M121.6,237.8c0.3-0.6,0.6-1.5,1.1-2.1c2.1-2.9,5.2-4.3,8.7-4.8c2-0.3,4.1-0.2,6.2-0.1c1.7,0.1,2.7,1.5,3.6,2.8
		c0.4,0.6,0.1,1.1-0.6,1.3c-2.2,0.6-4.2,1.5-5.8,3.2c-0.2,0.3-0.8,0.3-1.2,0.3c-2.6,0.2-4.7,1.2-6.1,3.4c-0.8,1.2-1.3,1.3-2.6,0.5
		C123.2,241.3,122,240,121.6,237.8z"/>
	<path class="st0" d="M128.9,149.2c0-4.8,0-9.5,0-14.2c3,0,6,0,9,0c0,4.7,0,9.4,0,14.2C135,149.2,132,149.2,128.9,149.2z"/>
	<path class="st0" d="M186.7,142.1c0,2,0,3.9,0,5.9c0,1-0.2,1.4-1.3,1.3c-2.2-0.1-4.5-0.1-6.7,0c-0.9,0-1.2-0.2-1.2-1.1
		c0-4,0-8.1,0-12.1c0-0.9,0.3-1.2,1.2-1.1c2.2,0,4.5,0.1,6.7,0c1.1,0,1.3,0.4,1.3,1.3C186.7,138.2,186.7,140.1,186.7,142.1z"/>
	<path class="st0" d="M168.1,150.6c-9.6,0-19.2,0-28.8,0c0-1.5,0-2.9,0-4.5c0.4,0,0.8-0.1,1.2-0.1c7,0,14,0,21,0
		c0.7,0,1.6,0.3,2.2,0.7c1.6,1.1,3.1,2.3,4.6,3.5C168.2,150.4,168.1,150.5,168.1,150.6z"/>
	<path class="st0" d="M116.1,146.1c0,1.6,0,3,0,4.5c-9.6,0-19.1,0-28.8,0c0.2-0.3,0.3-0.5,0.5-0.7c4.4-3.9,4.4-3.9,10.2-3.9
		c5.6,0,11.1,0,16.7,0C115.2,146.1,115.6,146.1,116.1,146.1z"/>
	<path class="st0" d="M132.9,257.3c0.3-0.5,0.6-1.1,1-1.6c2.9-3.8,4.3-8.1,3.3-12.9c-0.2-0.8-0.5-1.7-0.9-2.5
		c-0.5-1-0.4-1.9,0.6-2.4c1.4-0.7,2.9-1.3,4.5-1.9c0.7-0.3,1.2,0.1,1.5,0.9c3.3,8.2-0.9,17-8.5,20.3c-0.4,0.2-0.8,0.2-1.2,0.3
		C133.1,257.5,133,257.4,132.9,257.3z"/>
	<path class="st0" d="M126.8,245.9c-0.6,1.1-1.1,2.2-1.8,3.1c-0.6,0.8-1.5,1-2.5,0.6c-2.8-1.1-5.6-2.4-7.8-4.6c-1-1-1.7-2.2-2.5-3.3
		c-0.2-0.3-0.3-0.7-0.2-1c0.4-1.4,0.8-2.8,1.3-4.2c0.4-1.1,0.9-1.1,1.8-0.4c1.4,1,2.9,1.8,4.3,2.7c0.4,0.3,0.9,0.7,1.2,1.1
		c1,2,2.5,3.3,4.6,4.2c0.7,0.3,1.4,0.7,1.2,1.7C126.6,245.8,126.7,245.8,126.8,245.9z"/>
	<path class="st0" d="M134.2,228.9c-1,0.2-2,0.4-3.1,0.6c-3.3,0.7-6.4,1.8-8.7,4.4c-0.7,0.7-1.2,1.6-1.7,2.5c-0.5,0.8-1.1,1-1.9,0.5
		c-1-0.7-2-1.4-3-2.2c-0.9-0.6-0.8-1.3-0.2-2c2.7-3,5.9-4.8,9.9-5.5c2.5-0.4,4.9,0.1,7.3,0.6c0.4,0.1,0.8,0.4,1.2,0.7
		C134.2,228.6,134.2,228.7,134.2,228.9z"/>
	<path class="st0" d="M112.5,245.4c0.7,0.4,1.2,0.6,1.6,1c2.3,2,4.9,3.5,7.8,4.5c1.1,0.4,1.8,1,1.8,2.2c0,1.4-0.2,2.8-1.5,3.7
		c-0.3,0.2-1.1,0.1-1.6-0.1c-4.2-2.1-6.8-5.5-8.1-10C112.5,246.4,112.5,246,112.5,245.4z"/>
	<path class="st0" d="M187.6,103.8c2.2,0.3,4.4,0.7,6.6,1.1c0.1,0,0.3,0.1,0.4,0.2c1.4,1.7,2.8,3.4,4.3,5.1
		c-0.1,0.1-0.1,0.2-0.2,0.3c-1.5-0.3-3-0.6-4.5-0.8c-1.5-0.2-2.7-0.9-3.7-2.1c-0.9-1.2-2-2.3-3-3.4
		C187.5,104,187.5,103.9,187.6,103.8z"/>
	<path class="st0" d="M68.5,103.9c-1.5,1.6-2.9,3.3-4.4,4.8c-0.5,0.4-1.3,0.5-2,0.6c-1.6,0.4-3.2,0.7-5.2,1c1.1-1.5,2.1-2.7,3.1-4
		c0.9-1.2,2.1-2,3.7-2.1c1.6-0.1,3.1-0.4,4.7-0.7C68.4,103.8,68.5,103.8,68.5,103.9z"/>
	<path class="st0" d="M79,146.2c2.3,0,4.5,0,7,0c-1.7,1.5-3.2,3-4.8,4.3c-0.5,0.4-1.4,0.2-2.2,0.3C79,149.2,79,147.8,79,146.2z"/>
	<path class="st0" d="M176.4,146.2c0,1.5,0,2.9,0,4.4c-1.1,0.3-1.9,0.2-2.8-0.6c-1.2-1.3-2.6-2.4-4.1-3.8
		C171.9,146.2,174.1,146.2,176.4,146.2z"/>
	<path d="M196.8,219.6c5.6,2.3,11,4.5,16.7,6.8c-1.3,2.8-2.5,5.6-3.9,8.3c-0.9,1.6-2.6,2.1-4.4,1.7c-1.7-0.3-2.7-1.4-3.2-3
		c-0.1-0.2-0.1-0.4-0.2-0.6c0,0-0.1-0.1-0.1-0.2c-0.2,0.2-0.5,0.3-0.7,0.5c-1.4,1.1-2.9,1.2-4.5,0.5c-1.6-0.7-2.6-1.9-2.7-3.7
		c0-0.8,0-1.7,0.2-2.5C194.7,224.9,195.7,222.3,196.8,219.6z M198.3,224.1c-0.5,1.5-1.1,2.9-1.5,4.4c-0.3,0.9,0.2,1.6,1.1,2
		c0.9,0.4,1.9,0.5,2.4-0.4c0.8-1.3,1.4-2.8,2.1-4.3C201,225.1,199.8,224.6,198.3,224.1z M205.1,226.8c-0.4,1.4-0.9,2.6-1.2,3.9
		c-0.2,1,0.4,1.7,1.4,2c1,0.3,1.7-0.1,2.2-0.9c0.5-1.1,1-2.1,1.5-3.3C207.8,227.9,206.6,227.4,205.1,226.8z"/>
	<path d="M193.9,255c-4.9-0.1-9.6-4.4-9.9-9.2c-0.3-5.1,4.5-8.8,8.7-8.1c4.5,0.8,8.2,4,9,7.9C202.7,250.5,198.9,255.1,193.9,255z
		 M191.3,241.2c-3,0-4.9,3.1-3.5,5.8c1.2,2.4,3.3,3.9,6,4.3c3,0.5,5.2-2.2,4.4-5C197.5,243.9,193.9,241.2,191.3,241.2z"/>
	<path d="M217.7,196.5c0.1,1.2,0.2,2.2,0.3,3.5c-1.7,0.1-3.3,0.3-4.9,0.4c-2.2,0.1-4.4,0.2-6.6,0.3c-5.5,0.1-8.7-5.1-6.3-10.1
		c1-2.1,2.8-3.1,5-3.3c4-0.4,7.9-0.5,12-0.8c0.1,1.2,0.2,2.3,0.3,3.6c-2.5,0.2-4.9,0.3-7.3,0.5c-1.4,0.1-2.9,0.1-4.3,0.3
		c-2.4,0.3-3.5,2.1-2.8,4.3c0.4,1.3,1.4,2,3.1,1.9c2.8-0.1,5.5-0.2,8.3-0.3C215.4,196.6,216.5,196.6,217.7,196.5z"/>
	<path d="M216,179.3c-0.1,0.1-0.1,0.1-0.2,0.1c-2.9,1.1-2.9,1.1-3.7-1.8c-0.5-1.6-0.9-3.1-1.4-4.8c-1.4,0.4-2.6,0.7-3.9,1.1
		c0.6,2.3,1.2,4.4,1.9,6.6c-1,0.3-2,0.6-3.1,0.9c-0.7-2.2-1.3-4.3-2-6.6c-2.3,0.6-4.5,1.3-6.8,1.9c-0.3-1.1-0.6-2.2-1-3.4
		c5.7-1.7,11.4-3.3,17.1-4.9C213.9,172.1,214.9,175.7,216,179.3z"/>
	<path d="M215.4,219.5c-1.1-0.2-2.1-0.3-3.2-0.5c0.2-1.5,0.4-2.9,0.7-4.5c-4.7-0.8-9.4-1.6-14.2-2.5c0.2-1.2,0.4-2.3,0.6-3.5
		c4.8,0.8,9.5,1.6,14.3,2.4c0.3-1.5,0.5-2.8,0.8-4.4c1.1,0.2,2.1,0.3,3.2,0.5C216.8,211.3,216.1,215.3,215.4,219.5z"/>
	<path d="M189.6,263.5c-1,0.8-1.8,1.5-2.7,2.3c-3.1-3.7-6.2-7.3-9.3-11.1c-1.9,1.6-3.7,3.1-5.5,4.6c-0.7-0.8-1.4-1.6-2.1-2.5
		c2.8-2.3,5.5-4.6,8.3-7C181.9,254.5,185.7,258.9,189.6,263.5z"/>
	<path d="M75.3,270.7c-2.1-1.8-4.2-3.5-6-5.3c-1.4-1.3-2.1-3.1-1.2-5c0.9-2.1,2.6-2.9,4.9-2.8c-0.1-0.4-0.1-0.6-0.2-0.9
		c-0.7-1.9-0.2-3.4,1.2-4.8c1.4-1.3,3.1-1.8,4.7-0.8c2.1,1.2,4,2.7,5.9,4.2c0.7,0.5,1.4,1.2,2.2,1.9C83,261.6,79.2,266.1,75.3,270.7
		z M82.2,257.2c-1.2-0.9-2.3-1.8-3.5-2.6c-1-0.7-1.9-0.5-2.7,0.4c-0.7,0.8-0.8,1.8,0.1,2.7c1,1,2.1,1.9,3.2,3
		C80.3,259.4,81.2,258.3,82.2,257.2z M77.4,262.8c-1.1-0.8-2-1.6-3.1-2.3c-0.9-0.5-1.8-0.3-2.5,0.5c-0.7,0.8-0.6,1.8,0,2.5
		c0.8,0.9,1.8,1.6,2.7,2.5C75.6,264.9,76.5,263.9,77.4,262.8z"/>
	<path d="M57.8,230.4c1.8-0.7,3.5-1.4,5.3-2.2c0.5,1.1,0.9,2.1,1.4,3.3c-5.5,2.3-10.9,4.6-16.5,6.9c-1-2.8-2.2-5.4-3-8.2
		c-0.6-2.1,0.1-4,2-5.2c2-1.4,4.2-1.9,6.5-0.6c0.4,0.2,0.7,0.5,1.2,0.8c1.5-1.9,3-3.8,4.6-5.9c0.5,1.2,1,2.3,1.4,3.4
		c0.1,0.3-0.1,0.8-0.4,1.1c-0.8,1-1.6,2-2.3,3C56.6,228.4,56.6,228.4,57.8,230.4z M54.8,231.7c-0.5-1.2-0.9-2.3-1.5-3.2
		c-0.7-1.2-1.9-1.5-3.2-1c-1.2,0.5-2,1.4-1.8,2.5c0.3,1.3,0.8,2.6,1.3,3.9C51.4,233.1,53,232.4,54.8,231.7z"/>
	<path d="M48.5,198.3c-1.7-0.5-3.5-0.9-5.2-1.6c-3.7-1.6-4.7-5.5-4.3-8c0.6-3.8,3.4-6.5,7-6.8c2.3-0.2,4.5,0,6.7,1
		c3.4,1.6,5.3,5.1,4.6,8.4c-0.8,4-3.7,6.5-7.6,6.7c-0.4,0-0.7,0-1.1,0C48.5,198.1,48.5,198.2,48.5,198.3z M48.3,194.5
		c1.1-0.2,1.9-0.3,2.7-0.6c1.8-0.6,2.9-1.9,2.9-3.5c0.1-1.9-0.8-3.2-2.6-4c-1.8-0.7-3.6-1.1-5.6-0.7c-1.8,0.4-3.2,1.8-3.5,3.5
		c-0.3,1.6,0.6,3.3,2.3,4.1C45.8,193.9,47.2,194.2,48.3,194.5z"/>
	<path d="M40.6,205.1c1,0.5,1.9,1,2.8,1.5c-0.2,1.1-0.6,2.1-0.6,3.2c-0.1,2.1,1.1,3.7,3.1,4.3c2.3,0.7,4.6,0.3,6.6-1.1
		c1.7-1.2,2.4-3.5,1.5-5.4c-0.4-1-1-1.6-2.2-1.2c-0.6,0.2-1.2,0.2-1.8,0.3c0.1,1.1,0.2,2,0.4,3.1c-1,0.2-1.9,0.3-3,0.5
		c-0.4-2.2-0.7-4.3-1.1-6.6c1.9-0.3,3.7-0.7,5.6-0.9c2.8-0.4,3.3-0.1,4.7,2.4c3.1,5.7-0.2,11.9-6.8,12.7c-4.9,0.6-8.5-1.4-9.9-5.4
		C38.9,210,39.1,207.5,40.6,205.1z"/>
	<path d="M54.2,248.6c-0.7-1-1.4-1.9-2.1-2.9c2.4-1.8,4.7-3.5,7-5.2c1-0.7,1.9-1.4,3-2c2.8-1.7,5.9-1.3,8,1.2
		c2.6,3.1,3.3,6.9-0.5,9.8c-3.1,2.4-6.3,4.7-9.5,7.1c-0.7-1-1.4-1.9-2.1-2.9c2.7-2,5.4-3.9,8.1-5.9c0.8-0.6,1.5-1.2,2.1-1.9
		c0.9-1.1,0.7-2.5-0.3-3.6c-0.9-1.1-2.2-1.5-3.4-0.8c-1.2,0.6-2.3,1.4-3.4,2.2C58.8,245.2,56.6,246.9,54.2,248.6z"/>
	<path d="M47.6,163.8c0.7,1,1.2,1.8,1.7,2.5c-0.9,1.2-1.7,2.3-2.5,3.4c-0.5,0.8-0.5,1.6,0.3,2.2c0.8,0.6,1.6,0.4,2.3-0.2
		c1-0.9,1.9-1.9,2.8-2.8c2.3-2.3,4.1-2.7,6.5-1.4c2.2,1.2,3.1,3.4,2.4,6.3c-0.7,2.7-2.3,4.7-4.8,6c-0.6-0.9-1.1-1.8-1.7-2.8
		c0.5-0.4,1-0.7,1.4-1.1c1.1-0.9,1.8-1.9,2-3.3c0.1-0.9-0.1-1.8-1-1.9c-0.6-0.1-1.5,0.1-2,0.5c-1.2,1-2.1,2.2-3.3,3.2
		c-2.2,1.9-4.3,2.1-6.2,0.9c-2-1.3-2.7-3.7-2-6.3C44.1,166.8,45.6,165.1,47.6,163.8z"/>
	<path d="M157.9,122.6c0.5,1,1.2,1.9,1.4,2.8c0.7,3.2-1.9,5.8-5.3,5.5c-0.6-0.1-1.1-0.1-1.6-0.3c-2.4-0.7-4.8-1.5-7.3-2.3
		c1.9-5.7,3.7-11.3,5.7-17.2c2.9,1.2,5.8,2.3,8.6,3.5c1.5,0.7,2.1,2.1,2,3.8c-0.2,1.7-0.9,3-2.4,3.7
		C158.5,122.4,158.1,122.5,157.9,122.6z M149.4,126.4c1.5,0.4,2.8,0.9,4.2,1.2c1,0.2,1.9-0.2,2.3-1.3c0.3-0.9,0.2-1.9-0.8-2.4
		c-1.4-0.7-2.8-1.1-4.3-1.7C150.3,123.7,149.9,125,149.4,126.4z M151.7,119.5c1.4,0.3,2.6,0.7,3.9,0.9c1,0.2,1.6-0.5,1.9-1.4
		c0.3-0.9,0-1.7-0.8-2.1c-1.2-0.6-2.4-1-3.7-1.5C152.6,116.9,152.2,118.1,151.7,119.5z"/>
	<path d="M128.8,108.6c1.3,0.2,2.4,0.3,3.6,0.4c-0.1,1.6-0.2,3.2-0.3,4.9c-0.2,2.1-0.4,4.3-0.6,6.4c-0.1,2.2,1.2,3.6,3.3,3.6
		c1.5,0,2.6-0.8,2.8-2.4c0.4-3.3,0.7-6.7,1-10c0.1-0.6,0.1-1.3,0.2-2c1.1,0.1,2.2,0.2,3.5,0.3c-0.1,1.9-0.2,3.6-0.4,5.4
		c-0.2,2.2-0.4,4.4-0.7,6.5c-0.4,3.2-2.4,5.2-5.5,5.5c-3.8,0.3-6.7-1.3-7.5-4.3c-0.1-0.3-0.2-0.6-0.2-0.9
		C128.4,117.6,128.6,113.2,128.8,108.6z"/>
	<path d="M107.2,124.7c1,0.6,1.9,1.1,2.7,1.6c-1.7,4.8-7.8,6.6-11.7,3.5c-3.1-2.4-4.8-7.4-3.9-10.9c1.2-4.5,6.3-7,10.4-5.3
		c0.2,0.1,0.3,0.2,0.6,0.3c-0.3,1-0.6,2-1,3c-0.6-0.1-1.2-0.2-1.8-0.3c-2.8-0.4-4.7,1-4.8,3.9c-0.1,2.4,0.7,4.5,2.4,6.2
		c2,1.9,4.6,1.6,6.3-0.8C106.7,125.5,106.9,125.2,107.2,124.7z"/>
	<path d="M114.2,128c-0.8-6-1.5-11.7-2.3-17.6c1.2-0.2,2.3-0.3,3.5-0.5c0.7,4.8,1.3,9.6,1.9,14.4c2.4-0.3,4.7-0.6,7.1-0.9
		c0.1,1.1,0.3,2.1,0.4,3.2C121.4,127.1,117.9,127.5,114.2,128z"/>
	<path d="M84.7,93.8c0-1.6,1-3.1,2.6-3.6c4.3-1.4,8.5-2.7,12.8-3.9c1.8-0.5,3.6,0.5,4.4,2.3c0.8,1.9,0.3,3.8-1.4,4.8
		c-1.2,0.7-2.5,1.1-3.9,1.6c-3.3,1-6.5,2-9.9,2.8C86.7,98.3,84.7,96.5,84.7,93.8z M89.2,96.6c1.4-0.4,3.4-0.9,5.3-1.5
		c2.6-0.8,5.2-1.6,7.7-2.6c1.4-0.6,1.8-2.1,1.2-3.6c-0.5-1.3-1.8-1.9-3.3-1.5c-1.8,0.5-3.5,1-5.3,1.6c-2.4,0.7-4.7,1.4-7.1,2.2
		c-1.5,0.5-2.2,1.8-1.9,3.2C86.3,96,87.1,96.7,89.2,96.6z"/>
	<path d="M166.4,97.7c-0.2,0-0.6-0.1-1.1-0.2c-3.8-1.2-7.7-2.4-11.5-3.7c-3.2-1.1-3.9-4.7-1.4-6.8c1-0.9,2.2-1,3.4-0.7
		c4.1,1.2,8.2,2.4,12.2,3.7c2.1,0.7,3.3,2.5,3,4.3C170.6,96.5,169,97.7,166.4,97.7z M166.4,96.5c2,0,3.1-0.8,3.4-2.3
		c0.2-1.4-0.6-2.6-2.2-3.1c-4-1.2-8.1-2.5-12.1-3.7c-0.9-0.3-1.8-0.1-2.6,0.6c-1.6,1.5-1.1,3.9,1.1,4.7c3.8,1.3,7.7,2.5,11.6,3.7
		C166,96.5,166.3,96.5,166.4,96.5z"/>
	<path d="M135.5,87.1c-0.6,0.7-0.9,1.4-1.5,1.8c-1.6,1-3.2,1.9-4.9,2.7c-0.6,0.3-1.4,0.2-2,0c-1.7-0.8-3.3-1.6-4.9-2.6
		c-1.7-1-1.7-2.6-0.1-3.7c1.5-1,3.1-2,4.6-3c0.9-0.6,1.8-0.6,2.7,0c1.6,1,3.2,2,4.7,3.1C134.7,85.7,135,86.4,135.5,87.1z
		 M128.1,82.9c-0.3,0.1-0.5,0.1-0.6,0.2c-1.6,1-3.2,2-4.8,3.1c-0.8,0.5-0.7,1.2,0.2,1.7c1.5,0.9,3.1,1.7,4.6,2.5
		c0.4,0.2,1,0.1,1.4-0.1c1.5-0.7,2.9-1.5,4.3-2.3c1-0.6,1.1-1.2,0.1-1.9c-1.4-1-2.9-1.9-4.4-2.9C128.7,83.1,128.4,83,128.1,82.9z"/>
	<path d="M176.9,93.3c2.6,0,4.7,2.1,4.7,4.6c0,2.5-2.1,4.6-4.7,4.6c-2.5,0-4.6-2.1-4.6-4.5C172.3,95.4,174.4,93.3,176.9,93.3z
		 M177,101.3c1.9,0,3.4-1.6,3.4-3.4c0-1.9-1.6-3.4-3.5-3.4c-1.9,0-3.4,1.5-3.4,3.4C173.6,99.8,175.1,101.3,177,101.3z"/>
	<path d="M78.9,102.5c-2.6,0-4.6-2-4.6-4.6c0-2.6,2-4.6,4.6-4.6c2.5,0,4.5,2,4.6,4.6C83.6,100.4,81.5,102.5,78.9,102.5z M82.4,98
		c0-2-1.5-3.5-3.5-3.5c-1.9,0-3.4,1.5-3.4,3.4c0,1.9,1.5,3.4,3.4,3.4C80.8,101.3,82.4,99.8,82.4,98z"/>
	<path d="M144.4,92.4c-2.6,0-4.6-2.1-4.6-4.6c0-2.6,2.1-4.6,4.7-4.6c2.5,0,4.5,2.1,4.6,4.6C149.1,90.4,147,92.4,144.4,92.4z
		 M144.4,91.3c2,0,3.5-1.6,3.5-3.5c0-1.9-1.6-3.4-3.5-3.4c-1.9,0-3.4,1.5-3.4,3.4C141,89.7,142.5,91.3,144.4,91.3z"/>
	<path d="M111.9,92.4c-2.6,0-4.6-2-4.7-4.6c0-2.5,2-4.6,4.5-4.6c2.6,0,4.7,1.9,4.7,4.5C116.5,90.4,114.5,92.4,111.9,92.4z
		 M115.3,87.9c0-1.9-1.4-3.4-3.4-3.5c-1.9,0-3.5,1.5-3.5,3.5c0,1.9,1.5,3.4,3.4,3.4C113.8,91.3,115.3,89.8,115.3,87.9z"/>
	<path class="st0" d="M198.3,224.1c1.4,0.6,2.7,1.1,4.2,1.7c-0.7,1.5-1.3,2.9-2.1,4.3c-0.6,0.9-1.5,0.9-2.4,0.4
		c-0.9-0.4-1.3-1.1-1.1-2C197.3,227,197.8,225.6,198.3,224.1z"/>
	<path class="st0" d="M205.1,226.8c1.5,0.6,2.7,1.1,4,1.6c-0.5,1.2-1,2.3-1.5,3.3c-0.5,0.9-1.2,1.2-2.2,0.9c-1-0.3-1.6-1-1.4-2
		C204.2,229.4,204.7,228.2,205.1,226.8z"/>
	<path class="st0" d="M191.3,241.2c2.6,0,6.1,2.6,6.9,5.1c0.8,2.9-1.4,5.5-4.4,5c-2.7-0.4-4.7-1.9-6-4.3
		C186.4,244.3,188.3,241.2,191.3,241.2z"/>
	<path class="st0" d="M82.2,257.2c-1,1.2-1.9,2.2-2.9,3.4c-1.1-1-2.2-1.9-3.2-3c-0.8-0.8-0.8-1.9-0.1-2.7c0.7-0.9,1.7-1,2.7-0.4
		C79.8,255.3,80.9,256.2,82.2,257.2z"/>
	<path class="st0" d="M77.4,262.8c-1,1.2-1.8,2.1-2.7,3.3c-0.9-0.9-1.9-1.6-2.7-2.5c-0.7-0.7-0.7-1.7,0-2.5c0.7-0.9,1.6-1,2.5-0.5
		C75.4,261.1,76.3,262,77.4,262.8z"/>
	<path class="st0" d="M54.8,231.7c-1.8,0.7-3.4,1.4-5.2,2.2c-0.5-1.4-1-2.6-1.3-3.9c-0.3-1.1,0.5-2,1.8-2.5c1.3-0.5,2.5-0.2,3.2,1
		C53.8,229.4,54.2,230.5,54.8,231.7z"/>
	<path class="st0" d="M48.3,194.5c-1.1-0.3-2.5-0.6-3.7-1.2c-1.7-0.8-2.6-2.5-2.3-4.1c0.3-1.7,1.7-3.1,3.5-3.5
		c2-0.4,3.8-0.1,5.6,0.7c1.8,0.8,2.7,2.1,2.6,4c-0.1,1.6-1.2,3-2.9,3.5C50.3,194.2,49.4,194.3,48.3,194.5z"/>
	<path class="st0" d="M149.4,126.4c0.5-1.4,0.9-2.7,1.4-4.2c1.5,0.6,3,1.1,4.3,1.7c1,0.5,1.1,1.4,0.8,2.4c-0.4,1.1-1.2,1.5-2.3,1.3
		C152.2,127.3,150.9,126.9,149.4,126.4z"/>
	<path class="st0" d="M151.7,119.5c0.5-1.4,0.9-2.7,1.4-4.1c1.3,0.5,2.5,0.9,3.7,1.5c0.8,0.4,1.1,1.2,0.8,2.1
		c-0.3,0.9-0.9,1.6-1.9,1.4C154.3,120.2,153,119.9,151.7,119.5z"/>
	<path class="st0" d="M89.2,96.6c-2.1,0-3-0.7-3.3-2.3c-0.3-1.4,0.4-2.7,1.9-3.2c2.3-0.8,4.7-1.5,7.1-2.2c1.8-0.5,3.5-1.1,5.3-1.6
		c1.4-0.4,2.7,0.2,3.3,1.5c0.6,1.4,0.2,3-1.2,3.6c-2.5,1-5.1,1.8-7.7,2.6C92.6,95.7,90.7,96.2,89.2,96.6z"/>
	<path class="st0" d="M166.4,96.5c-0.1,0-0.5,0-0.8-0.1c-3.9-1.2-7.7-2.4-11.6-3.7c-2.2-0.7-2.7-3.2-1.1-4.7
		c0.7-0.7,1.6-0.8,2.6-0.6c4,1.2,8.1,2.4,12.1,3.7c1.6,0.5,2.4,1.7,2.2,3.1C169.6,95.7,168.4,96.6,166.4,96.5z"/>
	<path class="st0" d="M128.1,82.9c0.2,0.1,0.6,0.2,0.8,0.3c1.5,0.9,3,1.9,4.4,2.9c1,0.7,0.9,1.3-0.1,1.9c-1.4,0.8-2.8,1.6-4.3,2.3
		c-0.4,0.2-1.1,0.3-1.4,0.1c-1.6-0.8-3.1-1.6-4.6-2.5c-0.9-0.5-1-1.2-0.2-1.7c1.6-1.1,3.2-2.1,4.8-3.1C127.6,83,127.8,83,128.1,82.9
		z"/>
	<path class="st0" d="M177,101.3c-1.9,0-3.4-1.5-3.4-3.4c0-1.9,1.5-3.4,3.4-3.4c1.9,0,3.4,1.5,3.5,3.4
		C180.4,99.8,178.9,101.3,177,101.3z"/>
	<path class="st0" d="M82.4,98c0,1.9-1.6,3.4-3.5,3.4c-1.9,0-3.4-1.5-3.4-3.4c0-1.9,1.5-3.4,3.4-3.4C80.8,94.5,82.4,96,82.4,98z"/>
	<path class="st0" d="M144.4,91.3c-1.9,0-3.4-1.6-3.4-3.4c0-1.9,1.5-3.4,3.4-3.4c1.9,0,3.4,1.5,3.5,3.4
		C147.9,89.7,146.3,91.3,144.4,91.3z"/>
	<path class="st0" d="M115.3,87.9c0,1.9-1.5,3.4-3.4,3.4c-1.9,0-3.4-1.5-3.4-3.4c0-1.9,1.6-3.5,3.5-3.5
		C113.8,84.4,115.3,86,115.3,87.9z"/>
</g>
</svg>
